127.0.0.1 - - [20/Dec/2016:00:20:48 -0200] "GET / HTTP/1.1" 404 951
127.0.0.1 - - [20/Dec/2016:00:21:07 -0200] "GET /lucenelanches/ HTTP/1.1" 404 979
127.0.0.1 - - [20/Dec/2016:00:21:07 -0200] "GET /favicon.ico HTTP/1.1" 404 973
127.0.0.1 - - [20/Dec/2016:00:21:21 -0200] "GET /pedidosLanches/ HTTP/1.1" 404 981
127.0.0.1 - - [20/Dec/2016:00:21:29 -0200] "GET /pedidoslanches/ HTTP/1.1" 200 862
127.0.0.1 - - [20/Dec/2016:00:21:29 -0200] "GET /pedidoslanches/javax.faces.resource/theme.css.xhtml?ln=primefaces-aristo HTTP/1.1" 200 29266
127.0.0.1 - - [20/Dec/2016:00:21:39 -0200] "POST /pedidoslanches/appLogin HTTP/1.1" 302 -
127.0.0.1 - - [20/Dec/2016:00:21:39 -0200] "GET /pedidoslanches/pedidos/pedidos.xhtml HTTP/1.1" 200 14757
127.0.0.1 - - [20/Dec/2016:00:21:39 -0200] "GET /pedidoslanches/javax.faces.resource/watermark/watermark.js.xhtml?ln=primefaces&v=5.1 HTTP/1.1" 200 5360
127.0.0.1 - - [20/Dec/2016:00:21:39 -0200] "GET /pedidoslanches/javax.faces.resource/watermark/watermark.css.xhtml?ln=primefaces&v=5.1 HTTP/1.1" 200 37
127.0.0.1 - - [20/Dec/2016:00:21:39 -0200] "GET /pedidoslanches/javax.faces.resource/primefaces.js.xhtml?ln=primefaces&v=5.1 HTTP/1.1" 200 313177
127.0.0.1 - - [20/Dec/2016:00:21:39 -0200] "GET /pedidoslanches/javax.faces.resource/jquery/jquery.js.xhtml?ln=primefaces&v=5.1 HTTP/1.1" 200 108195
127.0.0.1 - - [20/Dec/2016:00:21:39 -0200] "GET /pedidoslanches/javax.faces.resource/jquery/jquery-plugins.js.xhtml?ln=primefaces&v=5.1 HTTP/1.1" 200 236815
127.0.0.1 - - [20/Dec/2016:00:21:39 -0200] "GET /pedidoslanches/javax.faces.resource/theme.css.xhtml?ln=primefaces-aristo HTTP/1.1" 200 29266
127.0.0.1 - - [20/Dec/2016:00:21:39 -0200] "GET /pedidoslanches/javax.faces.resource/primefaces.css.xhtml?ln=primefaces&v=5.1 HTTP/1.1" 200 58821
127.0.0.1 - - [20/Dec/2016:00:21:39 -0200] "GET /pedidoslanches/javax.faces.resource/jsf.js.xhtml?ln=javax.faces&stage=Development HTTP/1.1" 200 146040
127.0.0.1 - - [20/Dec/2016:00:21:40 -0200] "GET /pedidoslanches/javax.faces.resource/images/ui-icons_38667f_256x240.png.xhtml?ln=primefaces-aristo HTTP/1.1" 200 4369
127.0.0.1 - - [20/Dec/2016:00:23:37 -0200] "GET /pedidoslanches/ HTTP/1.1" 200 862
127.0.0.1 - - [20/Dec/2016:00:23:37 -0200] "GET /pedidoslanches/javax.faces.resource/theme.css.xhtml?ln=primefaces-aristo HTTP/1.1" 200 29266
127.0.0.1 - - [20/Dec/2016:00:25:27 -0200] "GET / HTTP/1.1" 404 951
127.0.0.1 - - [20/Dec/2016:00:25:39 -0200] "GET /pedidoslanches/ HTTP/1.1" 200 862
127.0.0.1 - - [20/Dec/2016:00:25:39 -0200] "GET /pedidoslanches/javax.faces.resource/theme.css.xhtml?ln=primefaces-aristo HTTP/1.1" 200 29266
127.0.0.1 - - [20/Dec/2016:00:25:49 -0200] "POST /pedidoslanches/appLogin HTTP/1.1" 302 -
127.0.0.1 - - [20/Dec/2016:00:25:50 -0200] "GET /pedidoslanches/pedidos/pedidos.xhtml HTTP/1.1" 200 14758
127.0.0.1 - - [20/Dec/2016:00:25:50 -0200] "GET /pedidoslanches/javax.faces.resource/theme.css.xhtml?ln=primefaces-aristo HTTP/1.1" 200 29266
127.0.0.1 - - [20/Dec/2016:00:25:50 -0200] "GET /pedidoslanches/javax.faces.resource/jquery/jquery.js.xhtml?ln=primefaces&v=5.1 HTTP/1.1" 200 108195
127.0.0.1 - - [20/Dec/2016:00:25:50 -0200] "GET /pedidoslanches/javax.faces.resource/watermark/watermark.css.xhtml?ln=primefaces&v=5.1 HTTP/1.1" 200 37
127.0.0.1 - - [20/Dec/2016:00:25:50 -0200] "GET /pedidoslanches/javax.faces.resource/watermark/watermark.js.xhtml?ln=primefaces&v=5.1 HTTP/1.1" 200 5360
127.0.0.1 - - [20/Dec/2016:00:25:50 -0200] "GET /pedidoslanches/javax.faces.resource/primefaces.js.xhtml?ln=primefaces&v=5.1 HTTP/1.1" 200 313177
127.0.0.1 - - [20/Dec/2016:00:25:50 -0200] "GET /pedidoslanches/javax.faces.resource/jquery/jquery-plugins.js.xhtml?ln=primefaces&v=5.1 HTTP/1.1" 200 236815
127.0.0.1 - - [20/Dec/2016:00:25:50 -0200] "GET /pedidoslanches/javax.faces.resource/primefaces.css.xhtml?ln=primefaces&v=5.1 HTTP/1.1" 200 58821
127.0.0.1 - - [20/Dec/2016:00:25:50 -0200] "GET /pedidoslanches/javax.faces.resource/jsf.js.xhtml?ln=javax.faces&stage=Development HTTP/1.1" 200 146040
127.0.0.1 - - [20/Dec/2016:00:25:50 -0200] "GET /pedidoslanches/javax.faces.resource/images/ui-icons_38667f_256x240.png.xhtml?ln=primefaces-aristo HTTP/1.1" 200 4369
127.0.0.1 - - [20/Dec/2016:00:26:53 -0200] "GET / HTTP/1.1" 404 951
127.0.0.1 - - [20/Dec/2016:00:26:59 -0200] "GET /pedidoslanches/ HTTP/1.1" 200 862
127.0.0.1 - - [20/Dec/2016:00:26:59 -0200] "GET /pedidoslanches/javax.faces.resource/theme.css.xhtml?ln=primefaces-aristo HTTP/1.1" 200 29266
127.0.0.1 - - [20/Dec/2016:00:27:07 -0200] "POST /pedidoslanches/appLogin HTTP/1.1" 302 -
127.0.0.1 - - [20/Dec/2016:00:27:07 -0200] "GET /pedidoslanches/pedidos/pedidos.xhtml HTTP/1.1" 200 14758
127.0.0.1 - - [20/Dec/2016:00:27:08 -0200] "GET /pedidoslanches/javax.faces.resource/watermark/watermark.css.xhtml?ln=primefaces&v=5.1 HTTP/1.1" 200 37
127.0.0.1 - - [20/Dec/2016:00:27:08 -0200] "GET /pedidoslanches/javax.faces.resource/watermark/watermark.js.xhtml?ln=primefaces&v=5.1 HTTP/1.1" 200 5360
127.0.0.1 - - [20/Dec/2016:00:27:08 -0200] "GET /pedidoslanches/javax.faces.resource/jquery/jquery.js.xhtml?ln=primefaces&v=5.1 HTTP/1.1" 200 108195
127.0.0.1 - - [20/Dec/2016:00:27:08 -0200] "GET /pedidoslanches/javax.faces.resource/jquery/jquery-plugins.js.xhtml?ln=primefaces&v=5.1 HTTP/1.1" 200 236815
127.0.0.1 - - [20/Dec/2016:00:27:08 -0200] "GET /pedidoslanches/javax.faces.resource/primefaces.js.xhtml?ln=primefaces&v=5.1 HTTP/1.1" 200 313177
127.0.0.1 - - [20/Dec/2016:00:27:08 -0200] "GET /pedidoslanches/javax.faces.resource/theme.css.xhtml?ln=primefaces-aristo HTTP/1.1" 200 29266
127.0.0.1 - - [20/Dec/2016:00:27:08 -0200] "GET /pedidoslanches/javax.faces.resource/primefaces.css.xhtml?ln=primefaces&v=5.1 HTTP/1.1" 200 58821
127.0.0.1 - - [20/Dec/2016:00:27:08 -0200] "GET /pedidoslanches/javax.faces.resource/jsf.js.xhtml?ln=javax.faces&stage=Development HTTP/1.1" 200 146040
127.0.0.1 - - [20/Dec/2016:00:27:08 -0200] "GET /pedidoslanches/javax.faces.resource/images/ui-icons_38667f_256x240.png.xhtml?ln=primefaces-aristo HTTP/1.1" 200 4369
127.0.0.1 - - [20/Dec/2016:00:27:15 -0200] "POST /pedidoslanches/pedidos/pedidos.xhtml HTTP/1.1" 500 51862
127.0.0.1 - - [20/Dec/2016:00:31:45 -0200] "GET / HTTP/1.1" 404 951
127.0.0.1 - - [20/Dec/2016:00:31:56 -0200] "GET /pedidoslanches/ HTTP/1.1" 200 862
127.0.0.1 - - [20/Dec/2016:00:31:56 -0200] "GET /pedidoslanches/javax.faces.resource/theme.css.xhtml?ln=primefaces-aristo HTTP/1.1" 200 29266
127.0.0.1 - - [20/Dec/2016:00:32:01 -0200] "POST /pedidoslanches/appLogin HTTP/1.1" 302 -
127.0.0.1 - - [20/Dec/2016:00:32:02 -0200] "GET /pedidoslanches/pedidos/pedidos.xhtml HTTP/1.1" 200 14758
127.0.0.1 - - [20/Dec/2016:00:32:02 -0200] "GET /pedidoslanches/javax.faces.resource/watermark/watermark.js.xhtml?ln=primefaces&v=5.1 HTTP/1.1" 200 5360
127.0.0.1 - - [20/Dec/2016:00:32:02 -0200] "GET /pedidoslanches/javax.faces.resource/watermark/watermark.css.xhtml?ln=primefaces&v=5.1 HTTP/1.1" 200 37
127.0.0.1 - - [20/Dec/2016:00:32:02 -0200] "GET /pedidoslanches/javax.faces.resource/theme.css.xhtml?ln=primefaces-aristo HTTP/1.1" 200 29266
127.0.0.1 - - [20/Dec/2016:00:32:02 -0200] "GET /pedidoslanches/javax.faces.resource/jquery/jquery.js.xhtml?ln=primefaces&v=5.1 HTTP/1.1" 200 108195
127.0.0.1 - - [20/Dec/2016:00:32:02 -0200] "GET /pedidoslanches/javax.faces.resource/primefaces.js.xhtml?ln=primefaces&v=5.1 HTTP/1.1" 200 313177
127.0.0.1 - - [20/Dec/2016:00:32:02 -0200] "GET /pedidoslanches/javax.faces.resource/jquery/jquery-plugins.js.xhtml?ln=primefaces&v=5.1 HTTP/1.1" 200 236815
127.0.0.1 - - [20/Dec/2016:00:32:02 -0200] "GET /pedidoslanches/javax.faces.resource/primefaces.css.xhtml?ln=primefaces&v=5.1 HTTP/1.1" 200 58821
127.0.0.1 - - [20/Dec/2016:00:32:02 -0200] "GET /pedidoslanches/javax.faces.resource/jsf.js.xhtml?ln=javax.faces&stage=Development HTTP/1.1" 200 146040
127.0.0.1 - - [20/Dec/2016:00:32:03 -0200] "GET /pedidoslanches/javax.faces.resource/images/ui-icons_38667f_256x240.png.xhtml?ln=primefaces-aristo HTTP/1.1" 200 4369
127.0.0.1 - - [20/Dec/2016:20:02:26 -0200] "GET / HTTP/1.1" 404 951
127.0.0.1 - - [20/Dec/2016:20:03:44 -0200] "GET / HTTP/1.1" 404 951
127.0.0.1 - - [20/Dec/2016:20:05:02 -0200] "GET / HTTP/1.1" 404 951
127.0.0.1 - - [20/Dec/2016:20:05:59 -0200] "GET / HTTP/1.1" 404 951
127.0.0.1 - - [20/Dec/2016:20:18:57 -0200] "GET / HTTP/1.1" 404 951
127.0.0.1 - - [20/Dec/2016:20:20:10 -0200] "GET / HTTP/1.1" 404 951
127.0.0.1 - - [20/Dec/2016:20:20:28 -0200] "GET /pedidoslanches/ HTTP/1.1" 200 862
127.0.0.1 - - [20/Dec/2016:20:20:28 -0200] "GET /pedidoslanches/javax.faces.resource/theme.css.xhtml?ln=primefaces-aristo HTTP/1.1" 200 29266
127.0.0.1 - - [20/Dec/2016:20:20:28 -0200] "GET /favicon.ico HTTP/1.1" 404 973
127.0.0.1 - - [20/Dec/2016:20:20:35 -0200] "POST /pedidoslanches/appLogin HTTP/1.1" 302 -
127.0.0.1 - - [20/Dec/2016:20:20:36 -0200] "GET /pedidoslanches/pedidos/pedidos.xhtml HTTP/1.1" 500 46983
127.0.0.1 - - [20/Dec/2016:20:21:40 -0200] "GET /pedidoslanches/ HTTP/1.1" 200 862
127.0.0.1 - - [20/Dec/2016:20:21:40 -0200] "GET /pedidoslanches/javax.faces.resource/theme.css.xhtml?ln=primefaces-aristo HTTP/1.1" 200 29266
127.0.0.1 - - [20/Dec/2016:20:21:47 -0200] "POST /pedidoslanches/appLogin HTTP/1.1" 302 -
127.0.0.1 - - [20/Dec/2016:20:21:47 -0200] "GET /pedidoslanches/pedidos/pedidos.xhtml HTTP/1.1" 200 14746
127.0.0.1 - - [20/Dec/2016:20:21:47 -0200] "GET /pedidoslanches/javax.faces.resource/watermark/watermark.css.xhtml?ln=primefaces&v=5.1 HTTP/1.1" 200 37
127.0.0.1 - - [20/Dec/2016:20:21:47 -0200] "GET /pedidoslanches/javax.faces.resource/watermark/watermark.js.xhtml?ln=primefaces&v=5.1 HTTP/1.1" 200 5360
127.0.0.1 - - [20/Dec/2016:20:21:47 -0200] "GET /pedidoslanches/javax.faces.resource/primefaces.js.xhtml?ln=primefaces&v=5.1 HTTP/1.1" 200 313177
127.0.0.1 - - [20/Dec/2016:20:21:47 -0200] "GET /pedidoslanches/javax.faces.resource/jquery/jquery.js.xhtml?ln=primefaces&v=5.1 HTTP/1.1" 200 108195
127.0.0.1 - - [20/Dec/2016:20:21:47 -0200] "GET /pedidoslanches/javax.faces.resource/theme.css.xhtml?ln=primefaces-aristo HTTP/1.1" 200 29266
127.0.0.1 - - [20/Dec/2016:20:21:47 -0200] "GET /pedidoslanches/javax.faces.resource/jquery/jquery-plugins.js.xhtml?ln=primefaces&v=5.1 HTTP/1.1" 200 236815
127.0.0.1 - - [20/Dec/2016:20:21:48 -0200] "GET /pedidoslanches/javax.faces.resource/primefaces.css.xhtml?ln=primefaces&v=5.1 HTTP/1.1" 200 58821
127.0.0.1 - - [20/Dec/2016:20:21:48 -0200] "GET /pedidoslanches/javax.faces.resource/jsf.js.xhtml?ln=javax.faces&stage=Development HTTP/1.1" 200 146040
127.0.0.1 - - [20/Dec/2016:20:21:48 -0200] "GET /pedidoslanches/javax.faces.resource/images/ui-icons_38667f_256x240.png.xhtml?ln=primefaces-aristo HTTP/1.1" 200 4369
127.0.0.1 - - [20/Dec/2016:20:27:59 -0200] "GET / HTTP/1.1" 404 951
127.0.0.1 - - [20/Dec/2016:20:28:32 -0200] "GET /pedidoslanches/ HTTP/1.1" 200 862
127.0.0.1 - - [20/Dec/2016:20:28:32 -0200] "GET /pedidoslanches/javax.faces.resource/theme.css.xhtml?ln=primefaces-aristo HTTP/1.1" 200 29266
127.0.0.1 - - [20/Dec/2016:20:28:38 -0200] "POST /pedidoslanches/appLogin HTTP/1.1" 302 -
127.0.0.1 - - [20/Dec/2016:20:28:39 -0200] "GET /pedidoslanches/pedidos/pedidos.xhtml HTTP/1.1" 200 14757
127.0.0.1 - - [20/Dec/2016:20:28:39 -0200] "GET /pedidoslanches/javax.faces.resource/jquery/jquery.js.xhtml?ln=primefaces&v=5.1 HTTP/1.1" 200 108195
127.0.0.1 - - [20/Dec/2016:20:28:39 -0200] "GET /pedidoslanches/javax.faces.resource/watermark/watermark.js.xhtml?ln=primefaces&v=5.1 HTTP/1.1" 200 5360
127.0.0.1 - - [20/Dec/2016:20:28:39 -0200] "GET /pedidoslanches/javax.faces.resource/watermark/watermark.css.xhtml?ln=primefaces&v=5.1 HTTP/1.1" 200 37
127.0.0.1 - - [20/Dec/2016:20:28:39 -0200] "GET /pedidoslanches/javax.faces.resource/primefaces.js.xhtml?ln=primefaces&v=5.1 HTTP/1.1" 200 313177
127.0.0.1 - - [20/Dec/2016:20:28:39 -0200] "GET /pedidoslanches/javax.faces.resource/theme.css.xhtml?ln=primefaces-aristo HTTP/1.1" 200 29266
127.0.0.1 - - [20/Dec/2016:20:28:39 -0200] "GET /pedidoslanches/javax.faces.resource/jquery/jquery-plugins.js.xhtml?ln=primefaces&v=5.1 HTTP/1.1" 200 236815
127.0.0.1 - - [20/Dec/2016:20:28:39 -0200] "GET /pedidoslanches/javax.faces.resource/primefaces.css.xhtml?ln=primefaces&v=5.1 HTTP/1.1" 200 58821
127.0.0.1 - - [20/Dec/2016:20:28:39 -0200] "GET /pedidoslanches/javax.faces.resource/jsf.js.xhtml?ln=javax.faces&stage=Development HTTP/1.1" 200 146040
127.0.0.1 - - [20/Dec/2016:20:28:40 -0200] "GET /pedidoslanches/javax.faces.resource/images/ui-icons_38667f_256x240.png.xhtml?ln=primefaces-aristo HTTP/1.1" 200 4369
127.0.0.1 - - [20/Dec/2016:20:30:19 -0200] "GET /pedidoslanches/pedidos/pedidos.xhtml HTTP/1.1" 200 14758
127.0.0.1 - - [20/Dec/2016:20:30:19 -0200] "GET /pedidoslanches/javax.faces.resource/theme.css.xhtml?ln=primefaces-aristo HTTP/1.1" 200 29266
127.0.0.1 - - [20/Dec/2016:20:30:19 -0200] "GET /pedidoslanches/javax.faces.resource/jquery/jquery.js.xhtml?ln=primefaces&v=5.1 HTTP/1.1" 200 108195
127.0.0.1 - - [20/Dec/2016:20:30:19 -0200] "GET /pedidoslanches/javax.faces.resource/watermark/watermark.js.xhtml?ln=primefaces&v=5.1 HTTP/1.1" 200 5360
127.0.0.1 - - [20/Dec/2016:20:30:19 -0200] "GET /pedidoslanches/javax.faces.resource/watermark/watermark.css.xhtml?ln=primefaces&v=5.1 HTTP/1.1" 200 37
127.0.0.1 - - [20/Dec/2016:20:30:19 -0200] "GET /pedidoslanches/javax.faces.resource/primefaces.js.xhtml?ln=primefaces&v=5.1 HTTP/1.1" 200 313177
127.0.0.1 - - [20/Dec/2016:20:30:19 -0200] "GET /pedidoslanches/javax.faces.resource/jquery/jquery-plugins.js.xhtml?ln=primefaces&v=5.1 HTTP/1.1" 200 236815
127.0.0.1 - - [20/Dec/2016:20:30:19 -0200] "GET /pedidoslanches/javax.faces.resource/primefaces.css.xhtml?ln=primefaces&v=5.1 HTTP/1.1" 200 58821
127.0.0.1 - - [20/Dec/2016:20:30:19 -0200] "GET /pedidoslanches/javax.faces.resource/jsf.js.xhtml?ln=javax.faces&stage=Development HTTP/1.1" 200 146040
127.0.0.1 - - [20/Dec/2016:20:30:20 -0200] "GET /pedidoslanches/javax.faces.resource/images/ui-icons_38667f_256x240.png.xhtml?ln=primefaces-aristo HTTP/1.1" 200 4369
127.0.0.1 - - [20/Dec/2016:20:30:27 -0200] "POST /pedidoslanches/pedidos/pedidos.xhtml HTTP/1.1" 200 14820
127.0.0.1 - - [20/Dec/2016:20:30:27 -0200] "GET /pedidoslanches/javax.faces.resource/watermark/watermark.css.xhtml?ln=primefaces&v=5.1 HTTP/1.1" 200 37
127.0.0.1 - - [20/Dec/2016:20:30:27 -0200] "GET /pedidoslanches/javax.faces.resource/watermark/watermark.js.xhtml?ln=primefaces&v=5.1 HTTP/1.1" 200 5360
127.0.0.1 - - [20/Dec/2016:20:30:27 -0200] "GET /pedidoslanches/javax.faces.resource/primefaces.js.xhtml?ln=primefaces&v=5.1 HTTP/1.1" 200 313177
127.0.0.1 - - [20/Dec/2016:20:30:27 -0200] "GET /pedidoslanches/javax.faces.resource/jquery/jquery.js.xhtml?ln=primefaces&v=5.1 HTTP/1.1" 200 108195
127.0.0.1 - - [20/Dec/2016:20:30:27 -0200] "GET /pedidoslanches/javax.faces.resource/jquery/jquery-plugins.js.xhtml?ln=primefaces&v=5.1 HTTP/1.1" 200 236815
127.0.0.1 - - [20/Dec/2016:20:30:27 -0200] "GET /pedidoslanches/javax.faces.resource/theme.css.xhtml?ln=primefaces-aristo HTTP/1.1" 200 29266
127.0.0.1 - - [20/Dec/2016:20:30:27 -0200] "GET /pedidoslanches/javax.faces.resource/primefaces.css.xhtml?ln=primefaces&v=5.1 HTTP/1.1" 200 58821
127.0.0.1 - - [20/Dec/2016:20:30:27 -0200] "GET /pedidoslanches/javax.faces.resource/jsf.js.xhtml?ln=javax.faces&stage=Development HTTP/1.1" 200 146040
127.0.0.1 - - [20/Dec/2016:20:30:28 -0200] "GET /pedidoslanches/javax.faces.resource/images/ui-icons_38667f_256x240.png.xhtml?ln=primefaces-aristo HTTP/1.1" 200 4369
127.0.0.1 - - [20/Dec/2016:20:31:26 -0200] "GET /pedidoslanches/pedidos/pedidos.xhtml HTTP/1.1" 200 14756
127.0.0.1 - - [20/Dec/2016:20:31:26 -0200] "GET /pedidoslanches/javax.faces.resource/watermark/watermark.js.xhtml?ln=primefaces&v=5.1 HTTP/1.1" 200 5360
127.0.0.1 - - [20/Dec/2016:20:31:26 -0200] "GET /pedidoslanches/javax.faces.resource/watermark/watermark.css.xhtml?ln=primefaces&v=5.1 HTTP/1.1" 200 37
127.0.0.1 - - [20/Dec/2016:20:31:26 -0200] "GET /pedidoslanches/javax.faces.resource/jquery/jquery.js.xhtml?ln=primefaces&v=5.1 HTTP/1.1" 200 108195
127.0.0.1 - - [20/Dec/2016:20:31:26 -0200] "GET /pedidoslanches/javax.faces.resource/primefaces.js.xhtml?ln=primefaces&v=5.1 HTTP/1.1" 200 313177
127.0.0.1 - - [20/Dec/2016:20:31:26 -0200] "GET /pedidoslanches/javax.faces.resource/theme.css.xhtml?ln=primefaces-aristo HTTP/1.1" 200 29266
127.0.0.1 - - [20/Dec/2016:20:31:26 -0200] "GET /pedidoslanches/javax.faces.resource/jquery/jquery-plugins.js.xhtml?ln=primefaces&v=5.1 HTTP/1.1" 200 236815
127.0.0.1 - - [20/Dec/2016:20:31:26 -0200] "GET /pedidoslanches/javax.faces.resource/primefaces.css.xhtml?ln=primefaces&v=5.1 HTTP/1.1" 200 58821
127.0.0.1 - - [20/Dec/2016:20:31:26 -0200] "GET /pedidoslanches/javax.faces.resource/jsf.js.xhtml?ln=javax.faces&stage=Development HTTP/1.1" 200 146040
127.0.0.1 - - [20/Dec/2016:20:31:27 -0200] "GET /pedidoslanches/javax.faces.resource/images/ui-icons_38667f_256x240.png.xhtml?ln=primefaces-aristo HTTP/1.1" 200 4369
127.0.0.1 - - [20/Dec/2016:20:31:34 -0200] "GET /pedidoslanches/ HTTP/1.1" 200 862
127.0.0.1 - - [20/Dec/2016:20:31:34 -0200] "GET /pedidoslanches/javax.faces.resource/theme.css.xhtml?ln=primefaces-aristo HTTP/1.1" 200 29266
127.0.0.1 - - [20/Dec/2016:20:31:41 -0200] "POST /pedidoslanches/appLogin HTTP/1.1" 302 -
127.0.0.1 - - [20/Dec/2016:20:31:41 -0200] "GET /pedidoslanches/index.xhtml?error HTTP/1.1" 200 877
127.0.0.1 - - [20/Dec/2016:20:31:42 -0200] "GET /pedidoslanches/javax.faces.resource/theme.css.xhtml?ln=primefaces-aristo HTTP/1.1" 200 29266
127.0.0.1 - - [20/Dec/2016:20:31:52 -0200] "POST /pedidoslanches/appLogin HTTP/1.1" 302 -
127.0.0.1 - - [20/Dec/2016:20:31:52 -0200] "GET /pedidoslanches/pedidos/pedidos.xhtml HTTP/1.1" 200 14756
127.0.0.1 - - [20/Dec/2016:20:31:52 -0200] "GET /pedidoslanches/javax.faces.resource/jquery/jquery.js.xhtml?ln=primefaces&v=5.1 HTTP/1.1" 200 108195
127.0.0.1 - - [20/Dec/2016:20:31:52 -0200] "GET /pedidoslanches/javax.faces.resource/primefaces.js.xhtml?ln=primefaces&v=5.1 HTTP/1.1" 200 313177
127.0.0.1 - - [20/Dec/2016:20:31:52 -0200] "GET /pedidoslanches/javax.faces.resource/watermark/watermark.css.xhtml?ln=primefaces&v=5.1 HTTP/1.1" 200 37
127.0.0.1 - - [20/Dec/2016:20:31:52 -0200] "GET /pedidoslanches/javax.faces.resource/watermark/watermark.js.xhtml?ln=primefaces&v=5.1 HTTP/1.1" 200 5360
127.0.0.1 - - [20/Dec/2016:20:31:52 -0200] "GET /pedidoslanches/javax.faces.resource/theme.css.xhtml?ln=primefaces-aristo HTTP/1.1" 200 29266
127.0.0.1 - - [20/Dec/2016:20:31:52 -0200] "GET /pedidoslanches/javax.faces.resource/jquery/jquery-plugins.js.xhtml?ln=primefaces&v=5.1 HTTP/1.1" 200 236815
127.0.0.1 - - [20/Dec/2016:20:31:52 -0200] "GET /pedidoslanches/javax.faces.resource/primefaces.css.xhtml?ln=primefaces&v=5.1 HTTP/1.1" 200 58821
127.0.0.1 - - [20/Dec/2016:20:31:52 -0200] "GET /pedidoslanches/javax.faces.resource/jsf.js.xhtml?ln=javax.faces&stage=Development HTTP/1.1" 200 146040
127.0.0.1 - - [20/Dec/2016:20:31:53 -0200] "GET /pedidoslanches/javax.faces.resource/images/ui-icons_38667f_256x240.png.xhtml?ln=primefaces-aristo HTTP/1.1" 200 4369
127.0.0.1 - - [20/Dec/2016:20:32:15 -0200] "GET /pedidoslanches/pedidos/pedidos.xhtml HTTP/1.1" 200 14758
127.0.0.1 - - [20/Dec/2016:20:32:16 -0200] "GET /pedidoslanches/javax.faces.resource/watermark/watermark.css.xhtml?ln=primefaces&v=5.1 HTTP/1.1" 200 37
127.0.0.1 - - [20/Dec/2016:20:32:16 -0200] "GET /pedidoslanches/javax.faces.resource/primefaces.js.xhtml?ln=primefaces&v=5.1 HTTP/1.1" 200 313177
127.0.0.1 - - [20/Dec/2016:20:32:16 -0200] "GET /pedidoslanches/javax.faces.resource/jquery/jquery.js.xhtml?ln=primefaces&v=5.1 HTTP/1.1" 200 108195
127.0.0.1 - - [20/Dec/2016:20:32:16 -0200] "GET /pedidoslanches/javax.faces.resource/watermark/watermark.js.xhtml?ln=primefaces&v=5.1 HTTP/1.1" 200 5360
127.0.0.1 - - [20/Dec/2016:20:32:16 -0200] "GET /pedidoslanches/javax.faces.resource/theme.css.xhtml?ln=primefaces-aristo HTTP/1.1" 200 29266
127.0.0.1 - - [20/Dec/2016:20:32:16 -0200] "GET /pedidoslanches/javax.faces.resource/jquery/jquery-plugins.js.xhtml?ln=primefaces&v=5.1 HTTP/1.1" 200 236815
127.0.0.1 - - [20/Dec/2016:20:32:16 -0200] "GET /pedidoslanches/javax.faces.resource/primefaces.css.xhtml?ln=primefaces&v=5.1 HTTP/1.1" 200 58821
127.0.0.1 - - [20/Dec/2016:20:32:16 -0200] "GET /pedidoslanches/javax.faces.resource/jsf.js.xhtml?ln=javax.faces&stage=Development HTTP/1.1" 200 146040
127.0.0.1 - - [20/Dec/2016:20:32:16 -0200] "GET /pedidoslanches/javax.faces.resource/images/ui-icons_38667f_256x240.png.xhtml?ln=primefaces-aristo HTTP/1.1" 200 4369
127.0.0.1 - - [20/Dec/2016:20:34:06 -0200] "GET / HTTP/1.1" 404 951
127.0.0.1 - - [20/Dec/2016:20:34:14 -0200] "GET /pedidoslanches/ HTTP/1.1" 200 862
127.0.0.1 - - [20/Dec/2016:20:34:14 -0200] "GET /pedidoslanches/javax.faces.resource/theme.css.xhtml?ln=primefaces-aristo HTTP/1.1" 200 29266
127.0.0.1 - - [20/Dec/2016:20:34:23 -0200] "POST /pedidoslanches/appLogin HTTP/1.1" 302 -
127.0.0.1 - - [20/Dec/2016:20:34:23 -0200] "GET /pedidoslanches/index.xhtml?error HTTP/1.1" 200 877
127.0.0.1 - - [20/Dec/2016:20:34:23 -0200] "GET /pedidoslanches/javax.faces.resource/theme.css.xhtml?ln=primefaces-aristo HTTP/1.1" 200 29266
127.0.0.1 - - [20/Dec/2016:20:34:32 -0200] "POST /pedidoslanches/appLogin HTTP/1.1" 302 -
127.0.0.1 - - [20/Dec/2016:20:34:33 -0200] "GET /pedidoslanches/pedidos/pedidos.xhtml HTTP/1.1" 200 14755
127.0.0.1 - - [20/Dec/2016:20:34:33 -0200] "GET /pedidoslanches/javax.faces.resource/watermark/watermark.js.xhtml?ln=primefaces&v=5.1 HTTP/1.1" 200 5360
127.0.0.1 - - [20/Dec/2016:20:34:33 -0200] "GET /pedidoslanches/javax.faces.resource/watermark/watermark.css.xhtml?ln=primefaces&v=5.1 HTTP/1.1" 200 37
127.0.0.1 - - [20/Dec/2016:20:34:33 -0200] "GET /pedidoslanches/javax.faces.resource/primefaces.js.xhtml?ln=primefaces&v=5.1 HTTP/1.1" 200 313177
127.0.0.1 - - [20/Dec/2016:20:34:33 -0200] "GET /pedidoslanches/javax.faces.resource/jquery/jquery.js.xhtml?ln=primefaces&v=5.1 HTTP/1.1" 200 108195
127.0.0.1 - - [20/Dec/2016:20:34:33 -0200] "GET /pedidoslanches/javax.faces.resource/jquery/jquery-plugins.js.xhtml?ln=primefaces&v=5.1 HTTP/1.1" 200 236815
127.0.0.1 - - [20/Dec/2016:20:34:33 -0200] "GET /pedidoslanches/javax.faces.resource/theme.css.xhtml?ln=primefaces-aristo HTTP/1.1" 200 29266
127.0.0.1 - - [20/Dec/2016:20:34:33 -0200] "GET /pedidoslanches/javax.faces.resource/primefaces.css.xhtml?ln=primefaces&v=5.1 HTTP/1.1" 200 58821
127.0.0.1 - - [20/Dec/2016:20:34:33 -0200] "GET /pedidoslanches/javax.faces.resource/jsf.js.xhtml?ln=javax.faces&stage=Development HTTP/1.1" 200 146040
127.0.0.1 - - [20/Dec/2016:20:34:35 -0200] "GET /pedidoslanches/javax.faces.resource/images/ui-icons_38667f_256x240.png.xhtml?ln=primefaces-aristo HTTP/1.1" 200 4369
127.0.0.1 - - [20/Dec/2016:20:36:24 -0200] "GET / HTTP/1.1" 404 951
127.0.0.1 - - [20/Dec/2016:20:36:32 -0200] "GET /pedidoslanches/ HTTP/1.1" 200 862
127.0.0.1 - - [20/Dec/2016:20:36:32 -0200] "GET /pedidoslanches/javax.faces.resource/theme.css.xhtml?ln=primefaces-aristo HTTP/1.1" 200 29266
127.0.0.1 - - [20/Dec/2016:20:36:39 -0200] "POST /pedidoslanches/appLogin HTTP/1.1" 302 -
127.0.0.1 - - [20/Dec/2016:20:36:39 -0200] "GET /pedidoslanches/pedidos/pedidos.xhtml HTTP/1.1" 200 14754
127.0.0.1 - - [20/Dec/2016:20:36:39 -0200] "GET /pedidoslanches/javax.faces.resource/theme.css.xhtml?ln=primefaces-aristo HTTP/1.1" 200 29266
127.0.0.1 - - [20/Dec/2016:20:36:40 -0200] "GET /pedidoslanches/javax.faces.resource/jquery/jquery.js.xhtml?ln=primefaces&v=5.1 HTTP/1.1" 200 108195
127.0.0.1 - - [20/Dec/2016:20:36:40 -0200] "GET /pedidoslanches/javax.faces.resource/primefaces.js.xhtml?ln=primefaces&v=5.1 HTTP/1.1" 200 313177
127.0.0.1 - - [20/Dec/2016:20:36:40 -0200] "GET /pedidoslanches/javax.faces.resource/jquery/jquery-plugins.js.xhtml?ln=primefaces&v=5.1 HTTP/1.1" 200 236815
127.0.0.1 - - [20/Dec/2016:20:36:40 -0200] "GET /pedidoslanches/javax.faces.resource/watermark/watermark.css.xhtml?ln=primefaces&v=5.1 HTTP/1.1" 200 37
127.0.0.1 - - [20/Dec/2016:20:36:40 -0200] "GET /pedidoslanches/javax.faces.resource/watermark/watermark.js.xhtml?ln=primefaces&v=5.1 HTTP/1.1" 200 5360
127.0.0.1 - - [20/Dec/2016:20:36:40 -0200] "GET /pedidoslanches/javax.faces.resource/primefaces.css.xhtml?ln=primefaces&v=5.1 HTTP/1.1" 200 58821
127.0.0.1 - - [20/Dec/2016:20:36:40 -0200] "GET /pedidoslanches/javax.faces.resource/jsf.js.xhtml?ln=javax.faces&stage=Development HTTP/1.1" 200 146040
127.0.0.1 - - [20/Dec/2016:20:36:40 -0200] "GET /pedidoslanches/javax.faces.resource/images/ui-icons_38667f_256x240.png.xhtml?ln=primefaces-aristo HTTP/1.1" 200 4369
127.0.0.1 - - [20/Dec/2016:20:37:20 -0200] "GET / HTTP/1.1" 404 951
127.0.0.1 - - [20/Dec/2016:20:37:28 -0200] "GET /pedidoslanches/ HTTP/1.1" 200 862
127.0.0.1 - - [20/Dec/2016:20:37:28 -0200] "GET /pedidoslanches/javax.faces.resource/theme.css.xhtml?ln=primefaces-aristo HTTP/1.1" 200 29266
127.0.0.1 - - [20/Dec/2016:20:37:37 -0200] "POST /pedidoslanches/appLogin HTTP/1.1" 302 -
127.0.0.1 - - [20/Dec/2016:20:37:38 -0200] "GET /pedidoslanches/pedidos/pedidos.xhtml HTTP/1.1" 500 48450
127.0.0.1 - - [20/Dec/2016:20:41:14 -0200] "GET / HTTP/1.1" 404 951
127.0.0.1 - - [20/Dec/2016:20:41:28 -0200] "GET /pedidoslanches/ HTTP/1.1" 200 862
127.0.0.1 - - [20/Dec/2016:20:41:28 -0200] "GET /pedidoslanches/javax.faces.resource/theme.css.xhtml?ln=primefaces-aristo HTTP/1.1" 200 29266
127.0.0.1 - - [20/Dec/2016:20:41:35 -0200] "POST /pedidoslanches/appLogin HTTP/1.1" 302 -
127.0.0.1 - - [20/Dec/2016:20:41:36 -0200] "GET /pedidoslanches/pedidos/pedidos.xhtml HTTP/1.1" 200 14756
127.0.0.1 - - [20/Dec/2016:20:41:36 -0200] "GET /pedidoslanches/javax.faces.resource/watermark/watermark.js.xhtml?ln=primefaces&v=5.1 HTTP/1.1" 200 5360
127.0.0.1 - - [20/Dec/2016:20:41:36 -0200] "GET /pedidoslanches/javax.faces.resource/watermark/watermark.css.xhtml?ln=primefaces&v=5.1 HTTP/1.1" 200 37
127.0.0.1 - - [20/Dec/2016:20:41:37 -0200] "GET /pedidoslanches/javax.faces.resource/theme.css.xhtml?ln=primefaces-aristo HTTP/1.1" 200 29266
127.0.0.1 - - [20/Dec/2016:20:41:37 -0200] "GET /pedidoslanches/javax.faces.resource/primefaces.js.xhtml?ln=primefaces&v=5.1 HTTP/1.1" 200 313177
127.0.0.1 - - [20/Dec/2016:20:41:37 -0200] "GET /pedidoslanches/javax.faces.resource/jquery/jquery.js.xhtml?ln=primefaces&v=5.1 HTTP/1.1" 200 108195
127.0.0.1 - - [20/Dec/2016:20:41:37 -0200] "GET /pedidoslanches/javax.faces.resource/jquery/jquery-plugins.js.xhtml?ln=primefaces&v=5.1 HTTP/1.1" 200 236815
127.0.0.1 - - [20/Dec/2016:20:41:37 -0200] "GET /pedidoslanches/javax.faces.resource/primefaces.css.xhtml?ln=primefaces&v=5.1 HTTP/1.1" 200 58821
127.0.0.1 - - [20/Dec/2016:20:41:37 -0200] "GET /pedidoslanches/javax.faces.resource/jsf.js.xhtml?ln=javax.faces&stage=Development HTTP/1.1" 200 146040
127.0.0.1 - - [20/Dec/2016:20:41:38 -0200] "GET /pedidoslanches/javax.faces.resource/images/ui-icons_38667f_256x240.png.xhtml?ln=primefaces-aristo HTTP/1.1" 200 4369
127.0.0.1 - - [20/Dec/2016:20:42:21 -0200] "GET /pedidoslanches/pedidos/pedidos.xhtml HTTP/1.1" 200 15208
127.0.0.1 - - [20/Dec/2016:20:42:21 -0200] "GET /pedidoslanches/javax.faces.resource/watermark/watermark.css.xhtml?ln=primefaces&v=5.1 HTTP/1.1" 200 37
127.0.0.1 - - [20/Dec/2016:20:42:21 -0200] "GET /pedidoslanches/javax.faces.resource/watermark/watermark.js.xhtml?ln=primefaces&v=5.1 HTTP/1.1" 200 5360
127.0.0.1 - - [20/Dec/2016:20:42:21 -0200] "GET /pedidoslanches/javax.faces.resource/jquery/jquery.js.xhtml?ln=primefaces&v=5.1 HTTP/1.1" 200 108195
127.0.0.1 - - [20/Dec/2016:20:42:21 -0200] "GET /pedidoslanches/javax.faces.resource/theme.css.xhtml?ln=primefaces-aristo HTTP/1.1" 200 29266
127.0.0.1 - - [20/Dec/2016:20:42:21 -0200] "GET /pedidoslanches/javax.faces.resource/jquery/jquery-plugins.js.xhtml?ln=primefaces&v=5.1 HTTP/1.1" 200 236815
127.0.0.1 - - [20/Dec/2016:20:42:21 -0200] "GET /pedidoslanches/javax.faces.resource/primefaces.js.xhtml?ln=primefaces&v=5.1 HTTP/1.1" 200 313177
127.0.0.1 - - [20/Dec/2016:20:42:21 -0200] "GET /pedidoslanches/javax.faces.resource/primefaces.css.xhtml?ln=primefaces&v=5.1 HTTP/1.1" 200 58821
127.0.0.1 - - [20/Dec/2016:20:42:21 -0200] "GET /pedidoslanches/javax.faces.resource/jsf.js.xhtml?ln=javax.faces&stage=Development HTTP/1.1" 200 146040
127.0.0.1 - - [20/Dec/2016:20:42:22 -0200] "GET /pedidoslanches/javax.faces.resource/images/ui-icons_38667f_256x240.png.xhtml?ln=primefaces-aristo HTTP/1.1" 200 4369
127.0.0.1 - - [20/Dec/2016:20:48:39 -0200] "POST /pedidoslanches/pedidos/pedidos.xhtml HTTP/1.1" 200 15269
127.0.0.1 - - [20/Dec/2016:20:48:40 -0200] "GET /pedidoslanches/javax.faces.resource/watermark/watermark.js.xhtml?ln=primefaces&v=5.1 HTTP/1.1" 200 5360
127.0.0.1 - - [20/Dec/2016:20:48:40 -0200] "GET /pedidoslanches/javax.faces.resource/watermark/watermark.css.xhtml?ln=primefaces&v=5.1 HTTP/1.1" 200 37
127.0.0.1 - - [20/Dec/2016:20:48:40 -0200] "GET /pedidoslanches/javax.faces.resource/jquery/jquery-plugins.js.xhtml?ln=primefaces&v=5.1 HTTP/1.1" 200 236815
127.0.0.1 - - [20/Dec/2016:20:48:40 -0200] "GET /pedidoslanches/javax.faces.resource/primefaces.js.xhtml?ln=primefaces&v=5.1 HTTP/1.1" 200 313177
127.0.0.1 - - [20/Dec/2016:20:48:40 -0200] "GET /pedidoslanches/javax.faces.resource/jquery/jquery.js.xhtml?ln=primefaces&v=5.1 HTTP/1.1" 200 108195
127.0.0.1 - - [20/Dec/2016:20:48:40 -0200] "GET /pedidoslanches/javax.faces.resource/theme.css.xhtml?ln=primefaces-aristo HTTP/1.1" 200 29266
127.0.0.1 - - [20/Dec/2016:20:48:40 -0200] "GET /pedidoslanches/javax.faces.resource/primefaces.css.xhtml?ln=primefaces&v=5.1 HTTP/1.1" 200 58821
127.0.0.1 - - [20/Dec/2016:20:48:40 -0200] "GET /pedidoslanches/javax.faces.resource/jsf.js.xhtml?ln=javax.faces&stage=Development HTTP/1.1" 200 146040
127.0.0.1 - - [20/Dec/2016:20:48:40 -0200] "GET /pedidoslanches/javax.faces.resource/images/ui-icons_38667f_256x240.png.xhtml?ln=primefaces-aristo HTTP/1.1" 200 4369
127.0.0.1 - - [20/Dec/2016:20:50:19 -0200] "GET /pedidoslanches/pedidos/pedidos.xhtml HTTP/1.1" 200 15635
127.0.0.1 - - [20/Dec/2016:20:50:19 -0200] "GET /pedidoslanches/javax.faces.resource/watermark/watermark.js.xhtml?ln=primefaces&v=5.1 HTTP/1.1" 200 5360
127.0.0.1 - - [20/Dec/2016:20:50:19 -0200] "GET /pedidoslanches/javax.faces.resource/jquery/jquery.js.xhtml?ln=primefaces&v=5.1 HTTP/1.1" 200 108195
127.0.0.1 - - [20/Dec/2016:20:50:19 -0200] "GET /pedidoslanches/javax.faces.resource/theme.css.xhtml?ln=primefaces-aristo HTTP/1.1" 200 29266
127.0.0.1 - - [20/Dec/2016:20:50:19 -0200] "GET /pedidoslanches/javax.faces.resource/primefaces.js.xhtml?ln=primefaces&v=5.1 HTTP/1.1" 200 313177
127.0.0.1 - - [20/Dec/2016:20:50:19 -0200] "GET /pedidoslanches/javax.faces.resource/watermark/watermark.css.xhtml?ln=primefaces&v=5.1 HTTP/1.1" 200 37
127.0.0.1 - - [20/Dec/2016:20:50:19 -0200] "GET /pedidoslanches/javax.faces.resource/jquery/jquery-plugins.js.xhtml?ln=primefaces&v=5.1 HTTP/1.1" 200 236815
127.0.0.1 - - [20/Dec/2016:20:50:19 -0200] "GET /pedidoslanches/javax.faces.resource/primefaces.css.xhtml?ln=primefaces&v=5.1 HTTP/1.1" 200 58821
127.0.0.1 - - [20/Dec/2016:20:50:19 -0200] "GET /pedidoslanches/javax.faces.resource/jsf.js.xhtml?ln=javax.faces&stage=Development HTTP/1.1" 200 146040
127.0.0.1 - - [20/Dec/2016:20:50:20 -0200] "GET /pedidoslanches/javax.faces.resource/images/ui-icons_38667f_256x240.png.xhtml?ln=primefaces-aristo HTTP/1.1" 200 4369
127.0.0.1 - - [20/Dec/2016:20:50:29 -0200] "POST /pedidoslanches/pedidos/pedidos.xhtml HTTP/1.1" 200 15697
127.0.0.1 - - [20/Dec/2016:20:50:29 -0200] "GET /pedidoslanches/javax.faces.resource/jquery/jquery.js.xhtml?ln=primefaces&v=5.1 HTTP/1.1" 200 108195
127.0.0.1 - - [20/Dec/2016:20:50:29 -0200] "GET /pedidoslanches/javax.faces.resource/watermark/watermark.css.xhtml?ln=primefaces&v=5.1 HTTP/1.1" 200 37
127.0.0.1 - - [20/Dec/2016:20:50:29 -0200] "GET /pedidoslanches/javax.faces.resource/watermark/watermark.js.xhtml?ln=primefaces&v=5.1 HTTP/1.1" 200 5360
127.0.0.1 - - [20/Dec/2016:20:50:29 -0200] "GET /pedidoslanches/javax.faces.resource/primefaces.js.xhtml?ln=primefaces&v=5.1 HTTP/1.1" 200 313177
127.0.0.1 - - [20/Dec/2016:20:50:29 -0200] "GET /pedidoslanches/javax.faces.resource/jquery/jquery-plugins.js.xhtml?ln=primefaces&v=5.1 HTTP/1.1" 200 236815
127.0.0.1 - - [20/Dec/2016:20:50:29 -0200] "GET /pedidoslanches/javax.faces.resource/primefaces.css.xhtml?ln=primefaces&v=5.1 HTTP/1.1" 200 58821
127.0.0.1 - - [20/Dec/2016:20:50:29 -0200] "GET /pedidoslanches/javax.faces.resource/theme.css.xhtml?ln=primefaces-aristo HTTP/1.1" 200 29266
127.0.0.1 - - [20/Dec/2016:20:50:29 -0200] "GET /pedidoslanches/javax.faces.resource/jsf.js.xhtml?ln=javax.faces&stage=Development HTTP/1.1" 200 146040
127.0.0.1 - - [20/Dec/2016:20:50:30 -0200] "GET /pedidoslanches/javax.faces.resource/images/ui-icons_38667f_256x240.png.xhtml?ln=primefaces-aristo HTTP/1.1" 200 4369
127.0.0.1 - - [20/Dec/2016:22:29:23 -0200] "GET / HTTP/1.1" 404 951
127.0.0.1 - - [20/Dec/2016:22:29:31 -0200] "GET /pedidoslanches/ HTTP/1.1" 200 862
127.0.0.1 - - [20/Dec/2016:22:29:31 -0200] "GET /pedidoslanches/javax.faces.resource/theme.css.xhtml?ln=primefaces-aristo HTTP/1.1" 200 29266
127.0.0.1 - - [20/Dec/2016:22:29:37 -0200] "POST /pedidoslanches/appLogin HTTP/1.1" 302 -
127.0.0.1 - - [20/Dec/2016:22:29:37 -0200] "GET /pedidoslanches/pedidos/pedidos.xhtml HTTP/1.1" 200 16060
127.0.0.1 - - [20/Dec/2016:22:29:37 -0200] "GET /pedidoslanches/javax.faces.resource/watermark/watermark.js.xhtml?ln=primefaces&v=5.1 HTTP/1.1" 200 5360
127.0.0.1 - - [20/Dec/2016:22:29:37 -0200] "GET /pedidoslanches/javax.faces.resource/theme.css.xhtml?ln=primefaces-aristo HTTP/1.1" 200 29266
127.0.0.1 - - [20/Dec/2016:22:29:37 -0200] "GET /pedidoslanches/javax.faces.resource/watermark/watermark.css.xhtml?ln=primefaces&v=5.1 HTTP/1.1" 200 37
127.0.0.1 - - [20/Dec/2016:22:29:37 -0200] "GET /pedidoslanches/javax.faces.resource/jquery/jquery.js.xhtml?ln=primefaces&v=5.1 HTTP/1.1" 200 108195
127.0.0.1 - - [20/Dec/2016:22:29:37 -0200] "GET /pedidoslanches/javax.faces.resource/primefaces.js.xhtml?ln=primefaces&v=5.1 HTTP/1.1" 200 313177
127.0.0.1 - - [20/Dec/2016:22:29:37 -0200] "GET /pedidoslanches/javax.faces.resource/jquery/jquery-plugins.js.xhtml?ln=primefaces&v=5.1 HTTP/1.1" 200 236815
127.0.0.1 - - [20/Dec/2016:22:29:37 -0200] "GET /pedidoslanches/javax.faces.resource/primefaces.css.xhtml?ln=primefaces&v=5.1 HTTP/1.1" 200 58821
127.0.0.1 - - [20/Dec/2016:22:29:38 -0200] "GET /pedidoslanches/javax.faces.resource/jsf.js.xhtml?ln=javax.faces&stage=Development HTTP/1.1" 200 146040
127.0.0.1 - - [20/Dec/2016:22:29:38 -0200] "GET /pedidoslanches/javax.faces.resource/images/ui-icons_38667f_256x240.png.xhtml?ln=primefaces-aristo HTTP/1.1" 200 4369
127.0.0.1 - - [20/Dec/2016:22:29:48 -0200] "POST /pedidoslanches/pedidos/pedidos.xhtml HTTP/1.1" 200 16191
127.0.0.1 - - [20/Dec/2016:22:29:48 -0200] "GET /pedidoslanches/javax.faces.resource/watermark/watermark.css.xhtml?ln=primefaces&v=5.1 HTTP/1.1" 200 37
127.0.0.1 - - [20/Dec/2016:22:29:48 -0200] "GET /pedidoslanches/javax.faces.resource/watermark/watermark.js.xhtml?ln=primefaces&v=5.1 HTTP/1.1" 200 5360
127.0.0.1 - - [20/Dec/2016:22:29:48 -0200] "GET /pedidoslanches/javax.faces.resource/jquery/jquery-plugins.js.xhtml?ln=primefaces&v=5.1 HTTP/1.1" 200 236815
127.0.0.1 - - [20/Dec/2016:22:29:48 -0200] "GET /pedidoslanches/javax.faces.resource/primefaces.js.xhtml?ln=primefaces&v=5.1 HTTP/1.1" 200 313177
127.0.0.1 - - [20/Dec/2016:22:29:48 -0200] "GET /pedidoslanches/javax.faces.resource/theme.css.xhtml?ln=primefaces-aristo HTTP/1.1" 200 29266
127.0.0.1 - - [20/Dec/2016:22:29:48 -0200] "GET /pedidoslanches/javax.faces.resource/jquery/jquery.js.xhtml?ln=primefaces&v=5.1 HTTP/1.1" 200 108195
127.0.0.1 - - [20/Dec/2016:22:29:48 -0200] "GET /pedidoslanches/javax.faces.resource/primefaces.css.xhtml?ln=primefaces&v=5.1 HTTP/1.1" 200 58821
127.0.0.1 - - [20/Dec/2016:22:29:49 -0200] "GET /pedidoslanches/javax.faces.resource/jsf.js.xhtml?ln=javax.faces&stage=Development HTTP/1.1" 200 146040
127.0.0.1 - - [20/Dec/2016:22:29:49 -0200] "GET /pedidoslanches/javax.faces.resource/images/ui-icons_38667f_256x240.png.xhtml?ln=primefaces-aristo HTTP/1.1" 200 4369
127.0.0.1 - - [20/Dec/2016:22:30:00 -0200] "POST /pedidoslanches/pedidos/pedidos.xhtml HTTP/1.1" 200 16147
127.0.0.1 - - [20/Dec/2016:22:30:00 -0200] "GET /pedidoslanches/javax.faces.resource/watermark/watermark.js.xhtml?ln=primefaces&v=5.1 HTTP/1.1" 200 5360
127.0.0.1 - - [20/Dec/2016:22:30:00 -0200] "GET /pedidoslanches/javax.faces.resource/jquery/jquery.js.xhtml?ln=primefaces&v=5.1 HTTP/1.1" 200 108195
127.0.0.1 - - [20/Dec/2016:22:30:00 -0200] "GET /pedidoslanches/javax.faces.resource/theme.css.xhtml?ln=primefaces-aristo HTTP/1.1" 200 29266
127.0.0.1 - - [20/Dec/2016:22:30:00 -0200] "GET /pedidoslanches/javax.faces.resource/watermark/watermark.css.xhtml?ln=primefaces&v=5.1 HTTP/1.1" 200 37
127.0.0.1 - - [20/Dec/2016:22:30:00 -0200] "GET /pedidoslanches/javax.faces.resource/primefaces.css.xhtml?ln=primefaces&v=5.1 HTTP/1.1" 200 58821
127.0.0.1 - - [20/Dec/2016:22:30:00 -0200] "GET /pedidoslanches/javax.faces.resource/primefaces.js.xhtml?ln=primefaces&v=5.1 HTTP/1.1" 200 313177
127.0.0.1 - - [20/Dec/2016:22:30:00 -0200] "GET /pedidoslanches/javax.faces.resource/jquery/jquery-plugins.js.xhtml?ln=primefaces&v=5.1 HTTP/1.1" 200 236815
127.0.0.1 - - [20/Dec/2016:22:30:00 -0200] "GET /pedidoslanches/javax.faces.resource/jsf.js.xhtml?ln=javax.faces&stage=Development HTTP/1.1" 200 146040
127.0.0.1 - - [20/Dec/2016:22:30:00 -0200] "GET /pedidoslanches/javax.faces.resource/images/ui-icons_38667f_256x240.png.xhtml?ln=primefaces-aristo HTTP/1.1" 200 4369
127.0.0.1 - - [20/Dec/2016:22:30:13 -0200] "POST /pedidoslanches/pedidos/pedidos.xhtml HTTP/1.1" 200 16191
127.0.0.1 - - [20/Dec/2016:22:30:13 -0200] "POST /pedidoslanches/pedidos/pedidos.xhtml HTTP/1.1" 200 16190
127.0.0.1 - - [20/Dec/2016:22:30:13 -0200] "GET /pedidoslanches/javax.faces.resource/watermark/watermark.js.xhtml?ln=primefaces&v=5.1 HTTP/1.1" 200 5360
127.0.0.1 - - [20/Dec/2016:22:30:13 -0200] "GET /pedidoslanches/javax.faces.resource/watermark/watermark.css.xhtml?ln=primefaces&v=5.1 HTTP/1.1" 200 37
127.0.0.1 - - [20/Dec/2016:22:30:13 -0200] "GET /pedidoslanches/javax.faces.resource/jquery/jquery.js.xhtml?ln=primefaces&v=5.1 HTTP/1.1" 200 108195
127.0.0.1 - - [20/Dec/2016:22:30:13 -0200] "GET /pedidoslanches/javax.faces.resource/primefaces.js.xhtml?ln=primefaces&v=5.1 HTTP/1.1" 200 313177
127.0.0.1 - - [20/Dec/2016:22:30:13 -0200] "GET /pedidoslanches/javax.faces.resource/jquery/jquery-plugins.js.xhtml?ln=primefaces&v=5.1 HTTP/1.1" 200 236815
127.0.0.1 - - [20/Dec/2016:22:30:13 -0200] "GET /pedidoslanches/javax.faces.resource/theme.css.xhtml?ln=primefaces-aristo HTTP/1.1" 200 29266
127.0.0.1 - - [20/Dec/2016:22:30:13 -0200] "GET /pedidoslanches/javax.faces.resource/primefaces.css.xhtml?ln=primefaces&v=5.1 HTTP/1.1" 200 58821
127.0.0.1 - - [20/Dec/2016:22:30:13 -0200] "GET /pedidoslanches/javax.faces.resource/jsf.js.xhtml?ln=javax.faces&stage=Development HTTP/1.1" 200 146040
127.0.0.1 - - [20/Dec/2016:22:30:13 -0200] "GET /pedidoslanches/javax.faces.resource/images/ui-icons_38667f_256x240.png.xhtml?ln=primefaces-aristo HTTP/1.1" 200 4369
127.0.0.1 - - [20/Dec/2016:23:01:52 -0200] "GET / HTTP/1.1" 404 951
127.0.0.1 - - [20/Dec/2016:23:02:06 -0200] "GET /pedidoslanches/ HTTP/1.1" 200 862
127.0.0.1 - - [20/Dec/2016:23:02:06 -0200] "GET /pedidoslanches/javax.faces.resource/theme.css.xhtml?ln=primefaces-aristo HTTP/1.1" 200 29266
127.0.0.1 - - [20/Dec/2016:23:02:16 -0200] "POST /pedidoslanches/appLogin HTTP/1.1" 302 -
127.0.0.1 - - [20/Dec/2016:23:02:16 -0200] "GET /pedidoslanches/pedidos/pedidos.xhtml HTTP/1.1" 200 16087
127.0.0.1 - - [20/Dec/2016:23:02:17 -0200] "GET /pedidoslanches/javax.faces.resource/watermark/watermark.css.xhtml?ln=primefaces&v=5.1 HTTP/1.1" 200 37
127.0.0.1 - - [20/Dec/2016:23:02:17 -0200] "GET /pedidoslanches/javax.faces.resource/watermark/watermark.js.xhtml?ln=primefaces&v=5.1 HTTP/1.1" 200 5360
127.0.0.1 - - [20/Dec/2016:23:02:17 -0200] "GET /pedidoslanches/javax.faces.resource/theme.css.xhtml?ln=primefaces-aristo HTTP/1.1" 200 29266
127.0.0.1 - - [20/Dec/2016:23:02:17 -0200] "GET /pedidoslanches/javax.faces.resource/primefaces.js.xhtml?ln=primefaces&v=5.1 HTTP/1.1" 200 313177
127.0.0.1 - - [20/Dec/2016:23:02:17 -0200] "GET /pedidoslanches/javax.faces.resource/jquery/jquery.js.xhtml?ln=primefaces&v=5.1 HTTP/1.1" 200 108195
127.0.0.1 - - [20/Dec/2016:23:02:17 -0200] "GET /pedidoslanches/javax.faces.resource/jquery/jquery-plugins.js.xhtml?ln=primefaces&v=5.1 HTTP/1.1" 200 236815
127.0.0.1 - - [20/Dec/2016:23:02:17 -0200] "GET /pedidoslanches/javax.faces.resource/primefaces.css.xhtml?ln=primefaces&v=5.1 HTTP/1.1" 200 58821
127.0.0.1 - - [20/Dec/2016:23:02:17 -0200] "GET /pedidoslanches/javax.faces.resource/jsf.js.xhtml?ln=javax.faces&stage=Development HTTP/1.1" 200 146040
127.0.0.1 - - [20/Dec/2016:23:02:17 -0200] "GET /pedidoslanches/javax.faces.resource/images/ui-icons_38667f_256x240.png.xhtml?ln=primefaces-aristo HTTP/1.1" 200 4369
127.0.0.1 - - [20/Dec/2016:23:02:26 -0200] "POST /pedidoslanches/pedidos/pedidos.xhtml HTTP/1.1" 200 16185
127.0.0.1 - - [20/Dec/2016:23:02:26 -0200] "GET /pedidoslanches/javax.faces.resource/watermark/watermark.css.xhtml?ln=primefaces&v=5.1 HTTP/1.1" 200 37
127.0.0.1 - - [20/Dec/2016:23:02:26 -0200] "GET /pedidoslanches/javax.faces.resource/watermark/watermark.js.xhtml?ln=primefaces&v=5.1 HTTP/1.1" 200 5360
127.0.0.1 - - [20/Dec/2016:23:02:26 -0200] "GET /pedidoslanches/javax.faces.resource/primefaces.js.xhtml?ln=primefaces&v=5.1 HTTP/1.1" 200 313177
127.0.0.1 - - [20/Dec/2016:23:02:26 -0200] "GET /pedidoslanches/javax.faces.resource/jquery/jquery.js.xhtml?ln=primefaces&v=5.1 HTTP/1.1" 200 108195
127.0.0.1 - - [20/Dec/2016:23:02:26 -0200] "GET /pedidoslanches/javax.faces.resource/jquery/jquery-plugins.js.xhtml?ln=primefaces&v=5.1 HTTP/1.1" 200 236815
127.0.0.1 - - [20/Dec/2016:23:02:26 -0200] "GET /pedidoslanches/javax.faces.resource/theme.css.xhtml?ln=primefaces-aristo HTTP/1.1" 200 29266
127.0.0.1 - - [20/Dec/2016:23:02:26 -0200] "GET /pedidoslanches/javax.faces.resource/primefaces.css.xhtml?ln=primefaces&v=5.1 HTTP/1.1" 200 58821
127.0.0.1 - - [20/Dec/2016:23:02:26 -0200] "GET /pedidoslanches/javax.faces.resource/jsf.js.xhtml?ln=javax.faces&stage=Development HTTP/1.1" 200 146040
127.0.0.1 - - [20/Dec/2016:23:02:27 -0200] "GET /pedidoslanches/javax.faces.resource/images/ui-icons_38667f_256x240.png.xhtml?ln=primefaces-aristo HTTP/1.1" 200 4369
127.0.0.1 - - [20/Dec/2016:23:02:29 -0200] "POST /pedidoslanches/pedidos/pedidos.xhtml HTTP/1.1" 200 16139
127.0.0.1 - - [20/Dec/2016:23:02:29 -0200] "GET /pedidoslanches/javax.faces.resource/primefaces.js.xhtml?ln=primefaces&v=5.1 HTTP/1.1" 200 313177
127.0.0.1 - - [20/Dec/2016:23:02:29 -0200] "GET /pedidoslanches/javax.faces.resource/jquery/jquery.js.xhtml?ln=primefaces&v=5.1 HTTP/1.1" 200 108195
127.0.0.1 - - [20/Dec/2016:23:02:29 -0200] "GET /pedidoslanches/javax.faces.resource/watermark/watermark.js.xhtml?ln=primefaces&v=5.1 HTTP/1.1" 200 5360
127.0.0.1 - - [20/Dec/2016:23:02:29 -0200] "GET /pedidoslanches/javax.faces.resource/watermark/watermark.css.xhtml?ln=primefaces&v=5.1 HTTP/1.1" 200 37
127.0.0.1 - - [20/Dec/2016:23:02:29 -0200] "GET /pedidoslanches/javax.faces.resource/jquery/jquery-plugins.js.xhtml?ln=primefaces&v=5.1 HTTP/1.1" 200 236815
127.0.0.1 - - [20/Dec/2016:23:02:29 -0200] "GET /pedidoslanches/javax.faces.resource/theme.css.xhtml?ln=primefaces-aristo HTTP/1.1" 200 29266
127.0.0.1 - - [20/Dec/2016:23:02:29 -0200] "GET /pedidoslanches/javax.faces.resource/primefaces.css.xhtml?ln=primefaces&v=5.1 HTTP/1.1" 200 58821
127.0.0.1 - - [20/Dec/2016:23:02:29 -0200] "GET /pedidoslanches/javax.faces.resource/jsf.js.xhtml?ln=javax.faces&stage=Development HTTP/1.1" 200 146040
127.0.0.1 - - [20/Dec/2016:23:02:29 -0200] "GET /pedidoslanches/javax.faces.resource/images/ui-icons_38667f_256x240.png.xhtml?ln=primefaces-aristo HTTP/1.1" 200 4369
127.0.0.1 - - [20/Dec/2016:23:04:05 -0200] "GET / HTTP/1.1" 404 951
127.0.0.1 - - [20/Dec/2016:23:05:08 -0200] "GET /pedidoslanches/ HTTP/1.1" 200 862
127.0.0.1 - - [20/Dec/2016:23:05:08 -0200] "GET /pedidoslanches/javax.faces.resource/theme.css.xhtml?ln=primefaces-aristo HTTP/1.1" 200 29266
127.0.0.1 - - [20/Dec/2016:23:05:19 -0200] "POST /pedidoslanches/appLogin HTTP/1.1" 302 -
127.0.0.1 - - [20/Dec/2016:23:05:19 -0200] "GET /pedidoslanches/pedidos/pedidos.xhtml HTTP/1.1" 200 16088
127.0.0.1 - - [20/Dec/2016:23:05:20 -0200] "GET /pedidoslanches/javax.faces.resource/primefaces.js.xhtml?ln=primefaces&v=5.1 HTTP/1.1" 200 313177
127.0.0.1 - - [20/Dec/2016:23:05:20 -0200] "GET /pedidoslanches/javax.faces.resource/jquery/jquery.js.xhtml?ln=primefaces&v=5.1 HTTP/1.1" 200 108195
127.0.0.1 - - [20/Dec/2016:23:05:20 -0200] "GET /pedidoslanches/javax.faces.resource/watermark/watermark.css.xhtml?ln=primefaces&v=5.1 HTTP/1.1" 200 37
127.0.0.1 - - [20/Dec/2016:23:05:20 -0200] "GET /pedidoslanches/javax.faces.resource/watermark/watermark.js.xhtml?ln=primefaces&v=5.1 HTTP/1.1" 200 5360
127.0.0.1 - - [20/Dec/2016:23:05:20 -0200] "GET /pedidoslanches/javax.faces.resource/theme.css.xhtml?ln=primefaces-aristo HTTP/1.1" 200 29266
127.0.0.1 - - [20/Dec/2016:23:05:20 -0200] "GET /pedidoslanches/javax.faces.resource/jquery/jquery-plugins.js.xhtml?ln=primefaces&v=5.1 HTTP/1.1" 200 236815
127.0.0.1 - - [20/Dec/2016:23:05:20 -0200] "GET /pedidoslanches/javax.faces.resource/primefaces.css.xhtml?ln=primefaces&v=5.1 HTTP/1.1" 200 58821
127.0.0.1 - - [20/Dec/2016:23:05:20 -0200] "GET /pedidoslanches/javax.faces.resource/jsf.js.xhtml?ln=javax.faces&stage=Development HTTP/1.1" 200 146040
127.0.0.1 - - [20/Dec/2016:23:05:20 -0200] "GET /pedidoslanches/javax.faces.resource/images/ui-icons_38667f_256x240.png.xhtml?ln=primefaces-aristo HTTP/1.1" 200 4369
127.0.0.1 - - [20/Dec/2016:23:05:26 -0200] "POST /pedidoslanches/pedidos/pedidos.xhtml HTTP/1.1" 200 16151
127.0.0.1 - - [20/Dec/2016:23:05:27 -0200] "GET /pedidoslanches/javax.faces.resource/primefaces.js.xhtml?ln=primefaces&v=5.1 HTTP/1.1" 200 313177
127.0.0.1 - - [20/Dec/2016:23:05:27 -0200] "GET /pedidoslanches/javax.faces.resource/watermark/watermark.css.xhtml?ln=primefaces&v=5.1 HTTP/1.1" 200 37
127.0.0.1 - - [20/Dec/2016:23:05:27 -0200] "GET /pedidoslanches/javax.faces.resource/jquery/jquery.js.xhtml?ln=primefaces&v=5.1 HTTP/1.1" 200 108195
127.0.0.1 - - [20/Dec/2016:23:05:27 -0200] "GET /pedidoslanches/javax.faces.resource/watermark/watermark.js.xhtml?ln=primefaces&v=5.1 HTTP/1.1" 200 5360
127.0.0.1 - - [20/Dec/2016:23:05:27 -0200] "GET /pedidoslanches/javax.faces.resource/jquery/jquery-plugins.js.xhtml?ln=primefaces&v=5.1 HTTP/1.1" 200 236815
127.0.0.1 - - [20/Dec/2016:23:05:27 -0200] "GET /pedidoslanches/javax.faces.resource/theme.css.xhtml?ln=primefaces-aristo HTTP/1.1" 200 29266
127.0.0.1 - - [20/Dec/2016:23:05:27 -0200] "GET /pedidoslanches/javax.faces.resource/primefaces.css.xhtml?ln=primefaces&v=5.1 HTTP/1.1" 200 58821
127.0.0.1 - - [20/Dec/2016:23:05:27 -0200] "GET /pedidoslanches/javax.faces.resource/jsf.js.xhtml?ln=javax.faces&stage=Development HTTP/1.1" 200 146040
127.0.0.1 - - [20/Dec/2016:23:05:27 -0200] "GET /pedidoslanches/javax.faces.resource/images/ui-icons_38667f_256x240.png.xhtml?ln=primefaces-aristo HTTP/1.1" 200 4369
127.0.0.1 - - [20/Dec/2016:23:05:29 -0200] "POST /pedidoslanches/pedidos/pedidos.xhtml HTTP/1.1" 200 16106
127.0.0.1 - - [20/Dec/2016:23:05:29 -0200] "POST /pedidoslanches/pedidos/pedidos.xhtml HTTP/1.1" 200 16106
127.0.0.1 - - [20/Dec/2016:23:05:29 -0200] "GET /pedidoslanches/javax.faces.resource/theme.css.xhtml?ln=primefaces-aristo HTTP/1.1" 200 29266
127.0.0.1 - - [20/Dec/2016:23:05:29 -0200] "GET /pedidoslanches/javax.faces.resource/jquery/jquery.js.xhtml?ln=primefaces&v=5.1 HTTP/1.1" 200 108195
127.0.0.1 - - [20/Dec/2016:23:05:29 -0200] "GET /pedidoslanches/javax.faces.resource/watermark/watermark.js.xhtml?ln=primefaces&v=5.1 HTTP/1.1" 200 5360
127.0.0.1 - - [20/Dec/2016:23:05:29 -0200] "GET /pedidoslanches/javax.faces.resource/primefaces.js.xhtml?ln=primefaces&v=5.1 HTTP/1.1" 200 313177
127.0.0.1 - - [20/Dec/2016:23:05:29 -0200] "GET /pedidoslanches/javax.faces.resource/watermark/watermark.css.xhtml?ln=primefaces&v=5.1 HTTP/1.1" 200 37
127.0.0.1 - - [20/Dec/2016:23:05:29 -0200] "GET /pedidoslanches/javax.faces.resource/jquery/jquery-plugins.js.xhtml?ln=primefaces&v=5.1 HTTP/1.1" 200 236815
127.0.0.1 - - [20/Dec/2016:23:05:29 -0200] "GET /pedidoslanches/javax.faces.resource/primefaces.css.xhtml?ln=primefaces&v=5.1 HTTP/1.1" 200 58821
127.0.0.1 - - [20/Dec/2016:23:05:29 -0200] "GET /pedidoslanches/javax.faces.resource/jsf.js.xhtml?ln=javax.faces&stage=Development HTTP/1.1" 200 146040
127.0.0.1 - - [20/Dec/2016:23:05:30 -0200] "GET /pedidoslanches/javax.faces.resource/images/ui-icons_38667f_256x240.png.xhtml?ln=primefaces-aristo HTTP/1.1" 200 4369
127.0.0.1 - - [20/Dec/2016:23:08:38 -0200] "GET / HTTP/1.1" 404 951
127.0.0.1 - - [20/Dec/2016:23:08:39 -0200] "GET /pedidoslanches/pedidos/pedidos.xhtml HTTP/1.1" 200 16107
127.0.0.1 - - [20/Dec/2016:23:08:39 -0200] "GET /pedidoslanches/pedidos/pedidos.xhtml HTTP/1.1" 200 16106
127.0.0.1 - - [20/Dec/2016:23:08:40 -0200] "GET /pedidoslanches/javax.faces.resource/jquery/jquery.js.xhtml?ln=primefaces&v=5.1 HTTP/1.1" 200 108195
127.0.0.1 - - [20/Dec/2016:23:08:40 -0200] "GET /pedidoslanches/javax.faces.resource/watermark/watermark.js.xhtml?ln=primefaces&v=5.1 HTTP/1.1" 200 5360
127.0.0.1 - - [20/Dec/2016:23:08:40 -0200] "GET /pedidoslanches/javax.faces.resource/watermark/watermark.css.xhtml?ln=primefaces&v=5.1 HTTP/1.1" 200 37
127.0.0.1 - - [20/Dec/2016:23:08:40 -0200] "GET /pedidoslanches/javax.faces.resource/primefaces.js.xhtml?ln=primefaces&v=5.1 HTTP/1.1" 200 313177
127.0.0.1 - - [20/Dec/2016:23:08:40 -0200] "GET /pedidoslanches/javax.faces.resource/jquery/jquery-plugins.js.xhtml?ln=primefaces&v=5.1 HTTP/1.1" 200 236815
127.0.0.1 - - [20/Dec/2016:23:08:40 -0200] "GET /pedidoslanches/javax.faces.resource/theme.css.xhtml?ln=primefaces-aristo HTTP/1.1" 200 29266
127.0.0.1 - - [20/Dec/2016:23:08:40 -0200] "GET /pedidoslanches/javax.faces.resource/primefaces.css.xhtml?ln=primefaces&v=5.1 HTTP/1.1" 200 58821
127.0.0.1 - - [20/Dec/2016:23:08:40 -0200] "GET /pedidoslanches/javax.faces.resource/jsf.js.xhtml?ln=javax.faces&stage=Development HTTP/1.1" 200 146040
127.0.0.1 - - [20/Dec/2016:23:08:41 -0200] "GET /pedidoslanches/javax.faces.resource/images/ui-icons_38667f_256x240.png.xhtml?ln=primefaces-aristo HTTP/1.1" 200 4369
127.0.0.1 - - [20/Dec/2016:23:09:25 -0200] "GET / HTTP/1.1" 404 951
127.0.0.1 - - [20/Dec/2016:23:09:30 -0200] "GET /pedidoslanches/pedidos/pedidos.xhtml HTTP/1.1" 200 16088
127.0.0.1 - - [20/Dec/2016:23:09:30 -0200] "GET /pedidoslanches/javax.faces.resource/primefaces.js.xhtml?ln=primefaces&v=5.1 HTTP/1.1" 200 313177
127.0.0.1 - - [20/Dec/2016:23:09:30 -0200] "GET /pedidoslanches/javax.faces.resource/jquery/jquery.js.xhtml?ln=primefaces&v=5.1 HTTP/1.1" 200 108195
127.0.0.1 - - [20/Dec/2016:23:09:30 -0200] "GET /pedidoslanches/javax.faces.resource/watermark/watermark.css.xhtml?ln=primefaces&v=5.1 HTTP/1.1" 200 37
127.0.0.1 - - [20/Dec/2016:23:09:30 -0200] "GET /pedidoslanches/javax.faces.resource/watermark/watermark.js.xhtml?ln=primefaces&v=5.1 HTTP/1.1" 200 5360
127.0.0.1 - - [20/Dec/2016:23:09:30 -0200] "GET /pedidoslanches/javax.faces.resource/jquery/jquery-plugins.js.xhtml?ln=primefaces&v=5.1 HTTP/1.1" 200 236815
127.0.0.1 - - [20/Dec/2016:23:09:30 -0200] "GET /pedidoslanches/javax.faces.resource/primefaces.css.xhtml?ln=primefaces&v=5.1 HTTP/1.1" 200 58821
127.0.0.1 - - [20/Dec/2016:23:09:30 -0200] "GET /pedidoslanches/javax.faces.resource/theme.css.xhtml?ln=primefaces-aristo HTTP/1.1" 200 29266
127.0.0.1 - - [20/Dec/2016:23:09:30 -0200] "GET /pedidoslanches/javax.faces.resource/jsf.js.xhtml?ln=javax.faces&stage=Development HTTP/1.1" 200 146040
127.0.0.1 - - [20/Dec/2016:23:09:30 -0200] "GET /pedidoslanches/javax.faces.resource/images/ui-icons_38667f_256x240.png.xhtml?ln=primefaces-aristo HTTP/1.1" 200 4369
127.0.0.1 - - [20/Dec/2016:23:09:34 -0200] "POST /pedidoslanches/pedidos/pedidos.xhtml HTTP/1.1" 200 16105
127.0.0.1 - - [20/Dec/2016:23:09:34 -0200] "GET /pedidoslanches/javax.faces.resource/watermark/watermark.js.xhtml?ln=primefaces&v=5.1 HTTP/1.1" 200 5360
127.0.0.1 - - [20/Dec/2016:23:09:34 -0200] "GET /pedidoslanches/javax.faces.resource/jquery/jquery.js.xhtml?ln=primefaces&v=5.1 HTTP/1.1" 200 108195
127.0.0.1 - - [20/Dec/2016:23:09:34 -0200] "GET /pedidoslanches/javax.faces.resource/watermark/watermark.css.xhtml?ln=primefaces&v=5.1 HTTP/1.1" 200 37
127.0.0.1 - - [20/Dec/2016:23:09:34 -0200] "GET /pedidoslanches/javax.faces.resource/primefaces.js.xhtml?ln=primefaces&v=5.1 HTTP/1.1" 200 313177
127.0.0.1 - - [20/Dec/2016:23:09:34 -0200] "GET /pedidoslanches/javax.faces.resource/jquery/jquery-plugins.js.xhtml?ln=primefaces&v=5.1 HTTP/1.1" 200 236815
127.0.0.1 - - [20/Dec/2016:23:09:34 -0200] "GET /pedidoslanches/javax.faces.resource/primefaces.css.xhtml?ln=primefaces&v=5.1 HTTP/1.1" 200 58821
127.0.0.1 - - [20/Dec/2016:23:09:34 -0200] "GET /pedidoslanches/javax.faces.resource/theme.css.xhtml?ln=primefaces-aristo HTTP/1.1" 200 29266
127.0.0.1 - - [20/Dec/2016:23:09:34 -0200] "GET /pedidoslanches/javax.faces.resource/jsf.js.xhtml?ln=javax.faces&stage=Development HTTP/1.1" 200 146040
127.0.0.1 - - [20/Dec/2016:23:09:34 -0200] "GET /pedidoslanches/javax.faces.resource/images/ui-icons_38667f_256x240.png.xhtml?ln=primefaces-aristo HTTP/1.1" 200 4369
127.0.0.1 - - [20/Dec/2016:23:09:36 -0200] "POST /pedidoslanches/pedidos/pedidos.xhtml HTTP/1.1" 200 16150
127.0.0.1 - - [20/Dec/2016:23:09:36 -0200] "GET /pedidoslanches/javax.faces.resource/watermark/watermark.js.xhtml?ln=primefaces&v=5.1 HTTP/1.1" 200 5360
127.0.0.1 - - [20/Dec/2016:23:09:36 -0200] "GET /pedidoslanches/javax.faces.resource/primefaces.js.xhtml?ln=primefaces&v=5.1 HTTP/1.1" 200 313177
127.0.0.1 - - [20/Dec/2016:23:09:36 -0200] "GET /pedidoslanches/javax.faces.resource/watermark/watermark.css.xhtml?ln=primefaces&v=5.1 HTTP/1.1" 200 37
127.0.0.1 - - [20/Dec/2016:23:09:36 -0200] "GET /pedidoslanches/javax.faces.resource/jquery/jquery-plugins.js.xhtml?ln=primefaces&v=5.1 HTTP/1.1" 200 236815
127.0.0.1 - - [20/Dec/2016:23:09:36 -0200] "GET /pedidoslanches/javax.faces.resource/jquery/jquery.js.xhtml?ln=primefaces&v=5.1 HTTP/1.1" 200 108195
127.0.0.1 - - [20/Dec/2016:23:09:36 -0200] "GET /pedidoslanches/javax.faces.resource/theme.css.xhtml?ln=primefaces-aristo HTTP/1.1" 200 29266
127.0.0.1 - - [20/Dec/2016:23:09:36 -0200] "GET /pedidoslanches/javax.faces.resource/primefaces.css.xhtml?ln=primefaces&v=5.1 HTTP/1.1" 200 58821
127.0.0.1 - - [20/Dec/2016:23:09:36 -0200] "GET /pedidoslanches/javax.faces.resource/jsf.js.xhtml?ln=javax.faces&stage=Development HTTP/1.1" 200 146040
127.0.0.1 - - [20/Dec/2016:23:09:36 -0200] "GET /pedidoslanches/javax.faces.resource/images/ui-icons_38667f_256x240.png.xhtml?ln=primefaces-aristo HTTP/1.1" 200 4369
127.0.0.1 - - [20/Dec/2016:23:09:38 -0200] "POST /pedidoslanches/pedidos/pedidos.xhtml HTTP/1.1" 200 16106
127.0.0.1 - - [20/Dec/2016:23:09:38 -0200] "GET /pedidoslanches/javax.faces.resource/watermark/watermark.css.xhtml?ln=primefaces&v=5.1 HTTP/1.1" 200 37
127.0.0.1 - - [20/Dec/2016:23:09:38 -0200] "GET /pedidoslanches/javax.faces.resource/watermark/watermark.js.xhtml?ln=primefaces&v=5.1 HTTP/1.1" 200 5360
127.0.0.1 - - [20/Dec/2016:23:09:38 -0200] "GET /pedidoslanches/javax.faces.resource/primefaces.js.xhtml?ln=primefaces&v=5.1 HTTP/1.1" 200 313177
127.0.0.1 - - [20/Dec/2016:23:09:38 -0200] "GET /pedidoslanches/javax.faces.resource/jquery/jquery.js.xhtml?ln=primefaces&v=5.1 HTTP/1.1" 200 108195
127.0.0.1 - - [20/Dec/2016:23:09:39 -0200] "GET /pedidoslanches/javax.faces.resource/jquery/jquery-plugins.js.xhtml?ln=primefaces&v=5.1 HTTP/1.1" 200 236815
127.0.0.1 - - [20/Dec/2016:23:09:39 -0200] "GET /pedidoslanches/javax.faces.resource/theme.css.xhtml?ln=primefaces-aristo HTTP/1.1" 200 29266
127.0.0.1 - - [20/Dec/2016:23:09:39 -0200] "GET /pedidoslanches/javax.faces.resource/primefaces.css.xhtml?ln=primefaces&v=5.1 HTTP/1.1" 200 58821
127.0.0.1 - - [20/Dec/2016:23:09:39 -0200] "GET /pedidoslanches/javax.faces.resource/jsf.js.xhtml?ln=javax.faces&stage=Development HTTP/1.1" 200 146040
127.0.0.1 - - [20/Dec/2016:23:09:39 -0200] "GET /pedidoslanches/javax.faces.resource/images/ui-icons_38667f_256x240.png.xhtml?ln=primefaces-aristo HTTP/1.1" 200 4369
127.0.0.1 - - [20/Dec/2016:23:10:40 -0200] "GET / HTTP/1.1" 404 951
127.0.0.1 - - [20/Dec/2016:23:10:41 -0200] "GET /pedidoslanches/ HTTP/1.1" 200 862
127.0.0.1 - - [20/Dec/2016:23:10:42 -0200] "GET /pedidoslanches/javax.faces.resource/theme.css.xhtml?ln=primefaces-aristo HTTP/1.1" 200 29266
127.0.0.1 - - [20/Dec/2016:23:10:44 -0200] "GET /pedidoslanches/ HTTP/1.1" 200 862
127.0.0.1 - - [20/Dec/2016:23:10:44 -0200] "GET /pedidoslanches/javax.faces.resource/theme.css.xhtml?ln=primefaces-aristo HTTP/1.1" 200 29266
127.0.0.1 - - [20/Dec/2016:23:10:52 -0200] "POST /pedidoslanches/appLogin HTTP/1.1" 302 -
127.0.0.1 - - [20/Dec/2016:23:10:53 -0200] "GET /pedidoslanches/pedidos/pedidos.xhtml HTTP/1.1" 200 16105
127.0.0.1 - - [20/Dec/2016:23:10:53 -0200] "GET /pedidoslanches/javax.faces.resource/watermark/watermark.css.xhtml?ln=primefaces&v=5.1 HTTP/1.1" 200 37
127.0.0.1 - - [20/Dec/2016:23:10:53 -0200] "GET /pedidoslanches/javax.faces.resource/watermark/watermark.js.xhtml?ln=primefaces&v=5.1 HTTP/1.1" 200 5360
127.0.0.1 - - [20/Dec/2016:23:10:53 -0200] "GET /pedidoslanches/javax.faces.resource/jquery/jquery.js.xhtml?ln=primefaces&v=5.1 HTTP/1.1" 200 108195
127.0.0.1 - - [20/Dec/2016:23:10:53 -0200] "GET /pedidoslanches/javax.faces.resource/primefaces.js.xhtml?ln=primefaces&v=5.1 HTTP/1.1" 200 313177
127.0.0.1 - - [20/Dec/2016:23:10:53 -0200] "GET /pedidoslanches/javax.faces.resource/jquery/jquery-plugins.js.xhtml?ln=primefaces&v=5.1 HTTP/1.1" 200 236815
127.0.0.1 - - [20/Dec/2016:23:10:53 -0200] "GET /pedidoslanches/javax.faces.resource/theme.css.xhtml?ln=primefaces-aristo HTTP/1.1" 200 29266
127.0.0.1 - - [20/Dec/2016:23:10:53 -0200] "GET /pedidoslanches/javax.faces.resource/primefaces.css.xhtml?ln=primefaces&v=5.1 HTTP/1.1" 200 58821
127.0.0.1 - - [20/Dec/2016:23:10:53 -0200] "GET /pedidoslanches/javax.faces.resource/jsf.js.xhtml?ln=javax.faces&stage=Development HTTP/1.1" 200 146040
127.0.0.1 - - [20/Dec/2016:23:10:53 -0200] "GET /pedidoslanches/javax.faces.resource/images/ui-icons_38667f_256x240.png.xhtml?ln=primefaces-aristo HTTP/1.1" 200 4369
127.0.0.1 - - [20/Dec/2016:23:12:20 -0200] "GET /pedidoslanches/pedidos/pedidos.xhtml HTTP/1.1" 200 16070
127.0.0.1 - - [20/Dec/2016:23:12:20 -0200] "GET /pedidoslanches/javax.faces.resource/watermark/watermark.css.xhtml?ln=primefaces&v=5.1 HTTP/1.1" 200 37
127.0.0.1 - - [20/Dec/2016:23:12:20 -0200] "GET /pedidoslanches/javax.faces.resource/jquery/jquery.js.xhtml?ln=primefaces&v=5.1 HTTP/1.1" 200 108195
127.0.0.1 - - [20/Dec/2016:23:12:20 -0200] "GET /pedidoslanches/javax.faces.resource/primefaces.js.xhtml?ln=primefaces&v=5.1 HTTP/1.1" 200 313177
127.0.0.1 - - [20/Dec/2016:23:12:20 -0200] "GET /pedidoslanches/javax.faces.resource/watermark/watermark.js.xhtml?ln=primefaces&v=5.1 HTTP/1.1" 200 5360
127.0.0.1 - - [20/Dec/2016:23:12:20 -0200] "GET /pedidoslanches/javax.faces.resource/jquery/jquery-plugins.js.xhtml?ln=primefaces&v=5.1 HTTP/1.1" 200 236815
127.0.0.1 - - [20/Dec/2016:23:12:20 -0200] "GET /pedidoslanches/javax.faces.resource/theme.css.xhtml?ln=primefaces-aristo HTTP/1.1" 200 29266
127.0.0.1 - - [20/Dec/2016:23:12:20 -0200] "GET /pedidoslanches/javax.faces.resource/primefaces.css.xhtml?ln=primefaces&v=5.1 HTTP/1.1" 200 58821
127.0.0.1 - - [20/Dec/2016:23:12:20 -0200] "GET /pedidoslanches/javax.faces.resource/jsf.js.xhtml?ln=javax.faces&stage=Development HTTP/1.1" 200 146040
127.0.0.1 - - [20/Dec/2016:23:12:21 -0200] "GET /pedidoslanches/javax.faces.resource/images/ui-icons_38667f_256x240.png.xhtml?ln=primefaces-aristo HTTP/1.1" 200 4369
127.0.0.1 - - [20/Dec/2016:23:12:54 -0200] "GET /pedidoslanches/pedidos/pedidos.xhtml HTTP/1.1" 200 16087
127.0.0.1 - - [20/Dec/2016:23:12:54 -0200] "GET /pedidoslanches/javax.faces.resource/watermark/watermark.css.xhtml?ln=primefaces&v=5.1 HTTP/1.1" 200 37
127.0.0.1 - - [20/Dec/2016:23:12:54 -0200] "GET /pedidoslanches/javax.faces.resource/primefaces.js.xhtml?ln=primefaces&v=5.1 HTTP/1.1" 200 313177
127.0.0.1 - - [20/Dec/2016:23:12:54 -0200] "GET /pedidoslanches/javax.faces.resource/watermark/watermark.js.xhtml?ln=primefaces&v=5.1 HTTP/1.1" 200 5360
127.0.0.1 - - [20/Dec/2016:23:12:54 -0200] "GET /pedidoslanches/javax.faces.resource/jquery/jquery.js.xhtml?ln=primefaces&v=5.1 HTTP/1.1" 200 108195
127.0.0.1 - - [20/Dec/2016:23:12:54 -0200] "GET /pedidoslanches/javax.faces.resource/jquery/jquery-plugins.js.xhtml?ln=primefaces&v=5.1 HTTP/1.1" 200 236815
127.0.0.1 - - [20/Dec/2016:23:12:54 -0200] "GET /pedidoslanches/javax.faces.resource/theme.css.xhtml?ln=primefaces-aristo HTTP/1.1" 200 29266
127.0.0.1 - - [20/Dec/2016:23:12:54 -0200] "GET /pedidoslanches/javax.faces.resource/primefaces.css.xhtml?ln=primefaces&v=5.1 HTTP/1.1" 200 58821
127.0.0.1 - - [20/Dec/2016:23:12:54 -0200] "GET /pedidoslanches/javax.faces.resource/jsf.js.xhtml?ln=javax.faces&stage=Development HTTP/1.1" 200 146040
127.0.0.1 - - [20/Dec/2016:23:12:54 -0200] "GET /pedidoslanches/javax.faces.resource/images/ui-icons_38667f_256x240.png.xhtml?ln=primefaces-aristo HTTP/1.1" 200 4369
127.0.0.1 - - [20/Dec/2016:23:13:01 -0200] "POST /pedidoslanches/pedidos/pedidos.xhtml HTTP/1.1" 200 16152
127.0.0.1 - - [20/Dec/2016:23:13:01 -0200] "GET /pedidoslanches/javax.faces.resource/watermark/watermark.js.xhtml?ln=primefaces&v=5.1 HTTP/1.1" 200 5360
127.0.0.1 - - [20/Dec/2016:23:13:01 -0200] "GET /pedidoslanches/javax.faces.resource/jquery/jquery.js.xhtml?ln=primefaces&v=5.1 HTTP/1.1" 200 108195
127.0.0.1 - - [20/Dec/2016:23:13:01 -0200] "GET /pedidoslanches/javax.faces.resource/primefaces.js.xhtml?ln=primefaces&v=5.1 HTTP/1.1" 200 313177
127.0.0.1 - - [20/Dec/2016:23:13:01 -0200] "GET /pedidoslanches/javax.faces.resource/watermark/watermark.css.xhtml?ln=primefaces&v=5.1 HTTP/1.1" 200 37
127.0.0.1 - - [20/Dec/2016:23:13:01 -0200] "GET /pedidoslanches/javax.faces.resource/jquery/jquery-plugins.js.xhtml?ln=primefaces&v=5.1 HTTP/1.1" 200 236815
127.0.0.1 - - [20/Dec/2016:23:13:01 -0200] "GET /pedidoslanches/javax.faces.resource/theme.css.xhtml?ln=primefaces-aristo HTTP/1.1" 200 29266
127.0.0.1 - - [20/Dec/2016:23:13:01 -0200] "GET /pedidoslanches/javax.faces.resource/primefaces.css.xhtml?ln=primefaces&v=5.1 HTTP/1.1" 200 58821
127.0.0.1 - - [20/Dec/2016:23:13:01 -0200] "GET /pedidoslanches/javax.faces.resource/jsf.js.xhtml?ln=javax.faces&stage=Development HTTP/1.1" 200 146040
127.0.0.1 - - [20/Dec/2016:23:13:01 -0200] "GET /pedidoslanches/javax.faces.resource/images/ui-icons_38667f_256x240.png.xhtml?ln=primefaces-aristo HTTP/1.1" 200 4369
127.0.0.1 - - [20/Dec/2016:23:13:07 -0200] "POST /pedidoslanches/pedidos/pedidos.xhtml HTTP/1.1" 200 16105
127.0.0.1 - - [20/Dec/2016:23:13:07 -0200] "GET /pedidoslanches/javax.faces.resource/jquery/jquery.js.xhtml?ln=primefaces&v=5.1 HTTP/1.1" 200 108195
127.0.0.1 - - [20/Dec/2016:23:13:07 -0200] "GET /pedidoslanches/javax.faces.resource/watermark/watermark.css.xhtml?ln=primefaces&v=5.1 HTTP/1.1" 200 37
127.0.0.1 - - [20/Dec/2016:23:13:07 -0200] "GET /pedidoslanches/javax.faces.resource/theme.css.xhtml?ln=primefaces-aristo HTTP/1.1" 200 29266
127.0.0.1 - - [20/Dec/2016:23:13:07 -0200] "GET /pedidoslanches/javax.faces.resource/primefaces.js.xhtml?ln=primefaces&v=5.1 HTTP/1.1" 200 313177
127.0.0.1 - - [20/Dec/2016:23:13:07 -0200] "GET /pedidoslanches/javax.faces.resource/watermark/watermark.js.xhtml?ln=primefaces&v=5.1 HTTP/1.1" 200 5360
127.0.0.1 - - [20/Dec/2016:23:13:07 -0200] "GET /pedidoslanches/javax.faces.resource/jquery/jquery-plugins.js.xhtml?ln=primefaces&v=5.1 HTTP/1.1" 200 236815
127.0.0.1 - - [20/Dec/2016:23:13:07 -0200] "GET /pedidoslanches/javax.faces.resource/primefaces.css.xhtml?ln=primefaces&v=5.1 HTTP/1.1" 200 58821
127.0.0.1 - - [20/Dec/2016:23:13:07 -0200] "GET /pedidoslanches/javax.faces.resource/jsf.js.xhtml?ln=javax.faces&stage=Development HTTP/1.1" 200 146040
127.0.0.1 - - [20/Dec/2016:23:13:07 -0200] "GET /pedidoslanches/javax.faces.resource/images/ui-icons_38667f_256x240.png.xhtml?ln=primefaces-aristo HTTP/1.1" 200 4369
127.0.0.1 - - [20/Dec/2016:23:13:47 -0200] "POST /pedidoslanches/pedidos/pedidos.xhtml HTTP/1.1" 200 16153
127.0.0.1 - - [20/Dec/2016:23:13:47 -0200] "GET /pedidoslanches/javax.faces.resource/watermark/watermark.css.xhtml?ln=primefaces&v=5.1 HTTP/1.1" 200 37
127.0.0.1 - - [20/Dec/2016:23:13:47 -0200] "GET /pedidoslanches/javax.faces.resource/watermark/watermark.js.xhtml?ln=primefaces&v=5.1 HTTP/1.1" 200 5360
127.0.0.1 - - [20/Dec/2016:23:13:47 -0200] "GET /pedidoslanches/javax.faces.resource/jquery/jquery.js.xhtml?ln=primefaces&v=5.1 HTTP/1.1" 200 108195
127.0.0.1 - - [20/Dec/2016:23:13:47 -0200] "GET /pedidoslanches/javax.faces.resource/primefaces.js.xhtml?ln=primefaces&v=5.1 HTTP/1.1" 200 313177
127.0.0.1 - - [20/Dec/2016:23:13:48 -0200] "GET /pedidoslanches/javax.faces.resource/jquery/jquery-plugins.js.xhtml?ln=primefaces&v=5.1 HTTP/1.1" 200 236815
127.0.0.1 - - [20/Dec/2016:23:13:48 -0200] "GET /pedidoslanches/javax.faces.resource/theme.css.xhtml?ln=primefaces-aristo HTTP/1.1" 200 29266
127.0.0.1 - - [20/Dec/2016:23:13:48 -0200] "GET /pedidoslanches/javax.faces.resource/primefaces.css.xhtml?ln=primefaces&v=5.1 HTTP/1.1" 200 58821
127.0.0.1 - - [20/Dec/2016:23:13:48 -0200] "GET /pedidoslanches/javax.faces.resource/jsf.js.xhtml?ln=javax.faces&stage=Development HTTP/1.1" 200 146040
127.0.0.1 - - [20/Dec/2016:23:13:48 -0200] "GET /pedidoslanches/javax.faces.resource/images/ui-icons_38667f_256x240.png.xhtml?ln=primefaces-aristo HTTP/1.1" 200 4369
127.0.0.1 - - [20/Dec/2016:23:16:39 -0200] "GET /pedidoslanches/pedidos/pedidos.xhtml HTTP/1.1" 200 16104
127.0.0.1 - - [20/Dec/2016:23:16:39 -0200] "GET /pedidoslanches/javax.faces.resource/watermark/watermark.css.xhtml?ln=primefaces&v=5.1 HTTP/1.1" 200 37
127.0.0.1 - - [20/Dec/2016:23:16:39 -0200] "GET /pedidoslanches/javax.faces.resource/watermark/watermark.js.xhtml?ln=primefaces&v=5.1 HTTP/1.1" 200 5360
127.0.0.1 - - [20/Dec/2016:23:16:39 -0200] "GET /pedidoslanches/javax.faces.resource/jquery/jquery.js.xhtml?ln=primefaces&v=5.1 HTTP/1.1" 200 108195
127.0.0.1 - - [20/Dec/2016:23:16:39 -0200] "GET /pedidoslanches/javax.faces.resource/primefaces.js.xhtml?ln=primefaces&v=5.1 HTTP/1.1" 200 313177
127.0.0.1 - - [20/Dec/2016:23:16:39 -0200] "GET /pedidoslanches/javax.faces.resource/jquery/jquery-plugins.js.xhtml?ln=primefaces&v=5.1 HTTP/1.1" 200 236815
127.0.0.1 - - [20/Dec/2016:23:16:39 -0200] "GET /pedidoslanches/javax.faces.resource/theme.css.xhtml?ln=primefaces-aristo HTTP/1.1" 200 29266
127.0.0.1 - - [20/Dec/2016:23:16:39 -0200] "GET /pedidoslanches/javax.faces.resource/primefaces.css.xhtml?ln=primefaces&v=5.1 HTTP/1.1" 200 58821
127.0.0.1 - - [20/Dec/2016:23:16:39 -0200] "GET /pedidoslanches/javax.faces.resource/jsf.js.xhtml?ln=javax.faces&stage=Development HTTP/1.1" 200 146040
127.0.0.1 - - [20/Dec/2016:23:16:39 -0200] "GET /pedidoslanches/javax.faces.resource/images/ui-icons_38667f_256x240.png.xhtml?ln=primefaces-aristo HTTP/1.1" 200 4369
127.0.0.1 - - [20/Dec/2016:23:17:02 -0200] "GET /pedidoslanches/ HTTP/1.1" 200 862
127.0.0.1 - - [20/Dec/2016:23:17:02 -0200] "GET /pedidoslanches/javax.faces.resource/theme.css.xhtml?ln=primefaces-aristo HTTP/1.1" 200 29266
127.0.0.1 - - [20/Dec/2016:23:17:08 -0200] "POST /pedidoslanches/appLogin HTTP/1.1" 302 -
127.0.0.1 - - [20/Dec/2016:23:17:08 -0200] "GET /pedidoslanches/pedidos/pedidos.xhtml HTTP/1.1" 200 16104
127.0.0.1 - - [20/Dec/2016:23:17:08 -0200] "GET /pedidoslanches/javax.faces.resource/jquery/jquery.js.xhtml?ln=primefaces&v=5.1 HTTP/1.1" 200 108195
127.0.0.1 - - [20/Dec/2016:23:17:08 -0200] "GET /pedidoslanches/javax.faces.resource/watermark/watermark.css.xhtml?ln=primefaces&v=5.1 HTTP/1.1" 200 37
127.0.0.1 - - [20/Dec/2016:23:17:08 -0200] "GET /pedidoslanches/javax.faces.resource/watermark/watermark.js.xhtml?ln=primefaces&v=5.1 HTTP/1.1" 200 5360
127.0.0.1 - - [20/Dec/2016:23:17:08 -0200] "GET /pedidoslanches/javax.faces.resource/primefaces.js.xhtml?ln=primefaces&v=5.1 HTTP/1.1" 200 313177
127.0.0.1 - - [20/Dec/2016:23:17:08 -0200] "GET /pedidoslanches/javax.faces.resource/jquery/jquery-plugins.js.xhtml?ln=primefaces&v=5.1 HTTP/1.1" 200 236815
127.0.0.1 - - [20/Dec/2016:23:17:08 -0200] "GET /pedidoslanches/javax.faces.resource/theme.css.xhtml?ln=primefaces-aristo HTTP/1.1" 200 29266
127.0.0.1 - - [20/Dec/2016:23:17:08 -0200] "GET /pedidoslanches/javax.faces.resource/primefaces.css.xhtml?ln=primefaces&v=5.1 HTTP/1.1" 200 58821
127.0.0.1 - - [20/Dec/2016:23:17:08 -0200] "GET /pedidoslanches/javax.faces.resource/jsf.js.xhtml?ln=javax.faces&stage=Development HTTP/1.1" 200 146040
127.0.0.1 - - [20/Dec/2016:23:17:09 -0200] "GET /pedidoslanches/javax.faces.resource/images/ui-icons_38667f_256x240.png.xhtml?ln=primefaces-aristo HTTP/1.1" 200 4369
127.0.0.1 - - [20/Dec/2016:23:18:07 -0200] "GET / HTTP/1.1" 404 951
127.0.0.1 - - [20/Dec/2016:23:18:13 -0200] "GET /pedidoslanches/ HTTP/1.1" 200 862
127.0.0.1 - - [20/Dec/2016:23:18:15 -0200] "GET /pedidoslanches/javax.faces.resource/theme.css.xhtml?ln=primefaces-aristo HTTP/1.1" 200 29266
127.0.0.1 - - [20/Dec/2016:23:18:22 -0200] "POST /pedidoslanches/appLogin HTTP/1.1" 302 -
127.0.0.1 - - [20/Dec/2016:23:18:22 -0200] "GET /pedidoslanches/pedidos/pedidos.xhtml HTTP/1.1" 200 16073
127.0.0.1 - - [20/Dec/2016:23:18:22 -0200] "GET /pedidoslanches/javax.faces.resource/watermark/watermark.js.xhtml?ln=primefaces&v=5.1 HTTP/1.1" 200 5360
127.0.0.1 - - [20/Dec/2016:23:18:22 -0200] "GET /pedidoslanches/javax.faces.resource/jquery/jquery.js.xhtml?ln=primefaces&v=5.1 HTTP/1.1" 200 108195
127.0.0.1 - - [20/Dec/2016:23:18:23 -0200] "GET /pedidoslanches/javax.faces.resource/theme.css.xhtml?ln=primefaces-aristo HTTP/1.1" 200 29266
127.0.0.1 - - [20/Dec/2016:23:18:23 -0200] "GET /pedidoslanches/javax.faces.resource/watermark/watermark.css.xhtml?ln=primefaces&v=5.1 HTTP/1.1" 200 37
127.0.0.1 - - [20/Dec/2016:23:18:23 -0200] "GET /pedidoslanches/javax.faces.resource/jquery/jquery-plugins.js.xhtml?ln=primefaces&v=5.1 HTTP/1.1" 200 236815
127.0.0.1 - - [20/Dec/2016:23:18:23 -0200] "GET /pedidoslanches/javax.faces.resource/primefaces.js.xhtml?ln=primefaces&v=5.1 HTTP/1.1" 200 313177
127.0.0.1 - - [20/Dec/2016:23:18:23 -0200] "GET /pedidoslanches/javax.faces.resource/primefaces.css.xhtml?ln=primefaces&v=5.1 HTTP/1.1" 200 58821
127.0.0.1 - - [20/Dec/2016:23:18:23 -0200] "GET /pedidoslanches/javax.faces.resource/jsf.js.xhtml?ln=javax.faces&stage=Development HTTP/1.1" 200 146040
127.0.0.1 - - [20/Dec/2016:23:18:23 -0200] "GET /pedidoslanches/javax.faces.resource/images/ui-icons_38667f_256x240.png.xhtml?ln=primefaces-aristo HTTP/1.1" 200 4369
127.0.0.1 - - [20/Dec/2016:23:18:28 -0200] "POST /pedidoslanches/pedidos/pedidos.xhtml HTTP/1.1" 200 16136
127.0.0.1 - - [20/Dec/2016:23:18:28 -0200] "GET /pedidoslanches/javax.faces.resource/watermark/watermark.js.xhtml?ln=primefaces&v=5.1 HTTP/1.1" 200 5360
127.0.0.1 - - [20/Dec/2016:23:18:28 -0200] "GET /pedidoslanches/javax.faces.resource/watermark/watermark.css.xhtml?ln=primefaces&v=5.1 HTTP/1.1" 200 37
127.0.0.1 - - [20/Dec/2016:23:18:28 -0200] "GET /pedidoslanches/javax.faces.resource/jquery/jquery.js.xhtml?ln=primefaces&v=5.1 HTTP/1.1" 200 108195
127.0.0.1 - - [20/Dec/2016:23:18:28 -0200] "GET /pedidoslanches/javax.faces.resource/jquery/jquery-plugins.js.xhtml?ln=primefaces&v=5.1 HTTP/1.1" 200 236815
127.0.0.1 - - [20/Dec/2016:23:18:28 -0200] "GET /pedidoslanches/javax.faces.resource/primefaces.css.xhtml?ln=primefaces&v=5.1 HTTP/1.1" 200 58821
127.0.0.1 - - [20/Dec/2016:23:18:28 -0200] "GET /pedidoslanches/javax.faces.resource/primefaces.js.xhtml?ln=primefaces&v=5.1 HTTP/1.1" 200 313177
127.0.0.1 - - [20/Dec/2016:23:18:28 -0200] "GET /pedidoslanches/javax.faces.resource/theme.css.xhtml?ln=primefaces-aristo HTTP/1.1" 200 29266
127.0.0.1 - - [20/Dec/2016:23:18:28 -0200] "GET /pedidoslanches/javax.faces.resource/jsf.js.xhtml?ln=javax.faces&stage=Development HTTP/1.1" 200 146040
127.0.0.1 - - [20/Dec/2016:23:18:28 -0200] "GET /pedidoslanches/javax.faces.resource/images/ui-icons_38667f_256x240.png.xhtml?ln=primefaces-aristo HTTP/1.1" 200 4369
127.0.0.1 - - [20/Dec/2016:23:18:31 -0200] "POST /pedidoslanches/pedidos/pedidos.xhtml HTTP/1.1" 200 16091
127.0.0.1 - - [20/Dec/2016:23:18:31 -0200] "GET /pedidoslanches/javax.faces.resource/watermark/watermark.css.xhtml?ln=primefaces&v=5.1 HTTP/1.1" 200 37
127.0.0.1 - - [20/Dec/2016:23:18:31 -0200] "GET /pedidoslanches/javax.faces.resource/jquery/jquery-plugins.js.xhtml?ln=primefaces&v=5.1 HTTP/1.1" 200 236815
127.0.0.1 - - [20/Dec/2016:23:18:31 -0200] "GET /pedidoslanches/javax.faces.resource/primefaces.css.xhtml?ln=primefaces&v=5.1 HTTP/1.1" 200 58821
127.0.0.1 - - [20/Dec/2016:23:18:31 -0200] "GET /pedidoslanches/javax.faces.resource/primefaces.js.xhtml?ln=primefaces&v=5.1 HTTP/1.1" 200 313177
127.0.0.1 - - [20/Dec/2016:23:18:31 -0200] "GET /pedidoslanches/javax.faces.resource/jquery/jquery.js.xhtml?ln=primefaces&v=5.1 HTTP/1.1" 200 108195
127.0.0.1 - - [20/Dec/2016:23:18:31 -0200] "GET /pedidoslanches/javax.faces.resource/watermark/watermark.js.xhtml?ln=primefaces&v=5.1 HTTP/1.1" 200 5360
127.0.0.1 - - [20/Dec/2016:23:18:31 -0200] "GET /pedidoslanches/javax.faces.resource/theme.css.xhtml?ln=primefaces-aristo HTTP/1.1" 200 29266
127.0.0.1 - - [20/Dec/2016:23:18:31 -0200] "GET /pedidoslanches/javax.faces.resource/jsf.js.xhtml?ln=javax.faces&stage=Development HTTP/1.1" 200 146040
127.0.0.1 - - [20/Dec/2016:23:18:31 -0200] "GET /pedidoslanches/javax.faces.resource/images/ui-icons_38667f_256x240.png.xhtml?ln=primefaces-aristo HTTP/1.1" 200 4369
127.0.0.1 - - [20/Dec/2016:23:24:12 -0200] "POST /pedidoslanches/pedidos/pedidos.xhtml HTTP/1.1" 200 16136
127.0.0.1 - - [20/Dec/2016:23:24:12 -0200] "GET /pedidoslanches/javax.faces.resource/watermark/watermark.css.xhtml?ln=primefaces&v=5.1 HTTP/1.1" 200 37
127.0.0.1 - - [20/Dec/2016:23:24:13 -0200] "GET /pedidoslanches/javax.faces.resource/watermark/watermark.js.xhtml?ln=primefaces&v=5.1 HTTP/1.1" 200 5360
127.0.0.1 - - [20/Dec/2016:23:24:13 -0200] "GET /pedidoslanches/javax.faces.resource/jquery/jquery.js.xhtml?ln=primefaces&v=5.1 HTTP/1.1" 200 108195
127.0.0.1 - - [20/Dec/2016:23:24:13 -0200] "GET /pedidoslanches/javax.faces.resource/primefaces.js.xhtml?ln=primefaces&v=5.1 HTTP/1.1" 200 313177
127.0.0.1 - - [20/Dec/2016:23:24:13 -0200] "GET /pedidoslanches/javax.faces.resource/jquery/jquery-plugins.js.xhtml?ln=primefaces&v=5.1 HTTP/1.1" 200 236815
127.0.0.1 - - [20/Dec/2016:23:24:13 -0200] "GET /pedidoslanches/javax.faces.resource/theme.css.xhtml?ln=primefaces-aristo HTTP/1.1" 200 29266
127.0.0.1 - - [20/Dec/2016:23:24:13 -0200] "GET /pedidoslanches/javax.faces.resource/primefaces.css.xhtml?ln=primefaces&v=5.1 HTTP/1.1" 200 58821
127.0.0.1 - - [20/Dec/2016:23:24:13 -0200] "GET /pedidoslanches/javax.faces.resource/jsf.js.xhtml?ln=javax.faces&stage=Development HTTP/1.1" 200 146040
127.0.0.1 - - [20/Dec/2016:23:24:13 -0200] "GET /pedidoslanches/javax.faces.resource/images/ui-icons_38667f_256x240.png.xhtml?ln=primefaces-aristo HTTP/1.1" 200 4369
127.0.0.1 - - [20/Dec/2016:23:36:16 -0200] "GET / HTTP/1.1" 404 951
127.0.0.1 - - [20/Dec/2016:23:36:33 -0200] "GET /pedidoslanches/ HTTP/1.1" 200 862
127.0.0.1 - - [20/Dec/2016:23:36:33 -0200] "GET /pedidoslanches/javax.faces.resource/theme.css.xhtml?ln=primefaces-aristo HTTP/1.1" 200 29266
127.0.0.1 - - [20/Dec/2016:23:36:39 -0200] "POST /pedidoslanches/appLogin HTTP/1.1" 302 -
127.0.0.1 - - [20/Dec/2016:23:36:40 -0200] "GET /pedidoslanches/pedidos/pedidos.xhtml HTTP/1.1" 500 46390
127.0.0.1 - - [20/Dec/2016:23:37:17 -0200] "GET /pedidoslanches/pedidos/pedidos.xhtml HTTP/1.1" 500 45744
127.0.0.1 - - [20/Dec/2016:23:38:01 -0200] "GET / HTTP/1.1" 404 951
127.0.0.1 - - [20/Dec/2016:23:38:19 -0200] "GET /pedidoslanches/pedidos/pedidos.xhtml HTTP/1.1" 302 -
127.0.0.1 - - [20/Dec/2016:23:38:20 -0200] "GET /pedidoslanches/index.xhtml HTTP/1.1" 200 862
127.0.0.1 - - [20/Dec/2016:23:38:20 -0200] "GET /pedidoslanches/javax.faces.resource/theme.css.xhtml?ln=primefaces-aristo HTTP/1.1" 200 29266
127.0.0.1 - - [20/Dec/2016:23:38:27 -0200] "POST /pedidoslanches/appLogin HTTP/1.1" 302 -
127.0.0.1 - - [20/Dec/2016:23:38:28 -0200] "GET /pedidoslanches/pedidos/pedidos.xhtml HTTP/1.1" 500 46467
127.0.0.1 - - [20/Dec/2016:23:38:48 -0200] "GET /pedidoslanches/pedidos/pedidos.xhtml HTTP/1.1" 200 16206
127.0.0.1 - - [20/Dec/2016:23:38:48 -0200] "GET /pedidoslanches/javax.faces.resource/watermark/watermark.js.xhtml?ln=primefaces&v=5.1 HTTP/1.1" 200 5360
127.0.0.1 - - [20/Dec/2016:23:38:48 -0200] "GET /pedidoslanches/javax.faces.resource/watermark/watermark.css.xhtml?ln=primefaces&v=5.1 HTTP/1.1" 200 37
127.0.0.1 - - [20/Dec/2016:23:38:48 -0200] "GET /pedidoslanches/javax.faces.resource/jquery/jquery.js.xhtml?ln=primefaces&v=5.1 HTTP/1.1" 200 108195
127.0.0.1 - - [20/Dec/2016:23:38:48 -0200] "GET /pedidoslanches/javax.faces.resource/primefaces.js.xhtml?ln=primefaces&v=5.1 HTTP/1.1" 200 313177
127.0.0.1 - - [20/Dec/2016:23:38:48 -0200] "GET /pedidoslanches/javax.faces.resource/jquery/jquery-plugins.js.xhtml?ln=primefaces&v=5.1 HTTP/1.1" 200 236815
127.0.0.1 - - [20/Dec/2016:23:38:48 -0200] "GET /pedidoslanches/javax.faces.resource/primefaces.css.xhtml?ln=primefaces&v=5.1 HTTP/1.1" 200 58821
127.0.0.1 - - [20/Dec/2016:23:38:48 -0200] "GET /pedidoslanches/javax.faces.resource/theme.css.xhtml?ln=primefaces-aristo HTTP/1.1" 200 29266
127.0.0.1 - - [20/Dec/2016:23:38:48 -0200] "GET /pedidoslanches/javax.faces.resource/jsf.js.xhtml?ln=javax.faces&stage=Development HTTP/1.1" 200 146040
127.0.0.1 - - [20/Dec/2016:23:38:48 -0200] "GET /pedidoslanches/javax.faces.resource/images/ui-icons_38667f_256x240.png.xhtml?ln=primefaces-aristo HTTP/1.1" 200 4369
127.0.0.1 - - [20/Dec/2016:23:38:56 -0200] "POST /pedidoslanches/pedidos/pedidos.xhtml HTTP/1.1" 500 47219
127.0.0.1 - - [20/Dec/2016:23:40:55 -0200] "GET / HTTP/1.1" 404 951
127.0.0.1 - - [20/Dec/2016:23:40:56 -0200] "GET /pedidoslanches/ HTTP/1.1" 200 862
127.0.0.1 - - [20/Dec/2016:23:40:56 -0200] "GET /pedidoslanches/javax.faces.resource/theme.css.xhtml?ln=primefaces-aristo HTTP/1.1" 200 29266
127.0.0.1 - - [20/Dec/2016:23:41:02 -0200] "POST /pedidoslanches/appLogin HTTP/1.1" 302 -
127.0.0.1 - - [20/Dec/2016:23:41:03 -0200] "GET /pedidoslanches/pedidos/pedidos.xhtml HTTP/1.1" 200 16205
127.0.0.1 - - [20/Dec/2016:23:41:03 -0200] "GET /pedidoslanches/javax.faces.resource/theme.css.xhtml?ln=primefaces-aristo HTTP/1.1" 200 29266
127.0.0.1 - - [20/Dec/2016:23:41:03 -0200] "GET /pedidoslanches/javax.faces.resource/primefaces.js.xhtml?ln=primefaces&v=5.1 HTTP/1.1" 200 313177
127.0.0.1 - - [20/Dec/2016:23:41:03 -0200] "GET /pedidoslanches/javax.faces.resource/watermark/watermark.css.xhtml?ln=primefaces&v=5.1 HTTP/1.1" 200 37
127.0.0.1 - - [20/Dec/2016:23:41:03 -0200] "GET /pedidoslanches/javax.faces.resource/jquery/jquery.js.xhtml?ln=primefaces&v=5.1 HTTP/1.1" 200 108195
127.0.0.1 - - [20/Dec/2016:23:41:03 -0200] "GET /pedidoslanches/javax.faces.resource/watermark/watermark.js.xhtml?ln=primefaces&v=5.1 HTTP/1.1" 200 5360
127.0.0.1 - - [20/Dec/2016:23:41:03 -0200] "GET /pedidoslanches/javax.faces.resource/jquery/jquery-plugins.js.xhtml?ln=primefaces&v=5.1 HTTP/1.1" 200 236815
127.0.0.1 - - [20/Dec/2016:23:41:03 -0200] "GET /pedidoslanches/javax.faces.resource/primefaces.css.xhtml?ln=primefaces&v=5.1 HTTP/1.1" 200 58821
127.0.0.1 - - [20/Dec/2016:23:41:03 -0200] "GET /pedidoslanches/javax.faces.resource/jsf.js.xhtml?ln=javax.faces&stage=Development HTTP/1.1" 200 146040
127.0.0.1 - - [20/Dec/2016:23:41:03 -0200] "GET /pedidoslanches/javax.faces.resource/images/ui-icons_38667f_256x240.png.xhtml?ln=primefaces-aristo HTTP/1.1" 200 4369
127.0.0.1 - - [20/Dec/2016:23:42:17 -0200] "GET / HTTP/1.1" 404 951
127.0.0.1 - - [20/Dec/2016:23:42:23 -0200] "GET /pedidoslanches/ HTTP/1.1" 200 862
127.0.0.1 - - [20/Dec/2016:23:42:23 -0200] "GET /pedidoslanches/javax.faces.resource/theme.css.xhtml?ln=primefaces-aristo HTTP/1.1" 200 29266
127.0.0.1 - - [20/Dec/2016:23:42:29 -0200] "POST /pedidoslanches/appLogin HTTP/1.1" 302 -
127.0.0.1 - - [20/Dec/2016:23:42:30 -0200] "GET /pedidoslanches/pedidos/pedidos.xhtml HTTP/1.1" 200 16205
127.0.0.1 - - [20/Dec/2016:23:42:30 -0200] "GET /pedidoslanches/javax.faces.resource/watermark/watermark.css.xhtml?ln=primefaces&v=5.1 HTTP/1.1" 200 37
127.0.0.1 - - [20/Dec/2016:23:42:30 -0200] "GET /pedidoslanches/javax.faces.resource/watermark/watermark.js.xhtml?ln=primefaces&v=5.1 HTTP/1.1" 200 5360
127.0.0.1 - - [20/Dec/2016:23:42:30 -0200] "GET /pedidoslanches/javax.faces.resource/primefaces.js.xhtml?ln=primefaces&v=5.1 HTTP/1.1" 200 313177
127.0.0.1 - - [20/Dec/2016:23:42:30 -0200] "GET /pedidoslanches/javax.faces.resource/theme.css.xhtml?ln=primefaces-aristo HTTP/1.1" 200 29266
127.0.0.1 - - [20/Dec/2016:23:42:30 -0200] "GET /pedidoslanches/javax.faces.resource/jquery/jquery.js.xhtml?ln=primefaces&v=5.1 HTTP/1.1" 200 108195
127.0.0.1 - - [20/Dec/2016:23:42:30 -0200] "GET /pedidoslanches/javax.faces.resource/jquery/jquery-plugins.js.xhtml?ln=primefaces&v=5.1 HTTP/1.1" 200 236815
127.0.0.1 - - [20/Dec/2016:23:42:30 -0200] "GET /pedidoslanches/javax.faces.resource/primefaces.css.xhtml?ln=primefaces&v=5.1 HTTP/1.1" 200 58821
127.0.0.1 - - [20/Dec/2016:23:42:30 -0200] "GET /pedidoslanches/javax.faces.resource/jsf.js.xhtml?ln=javax.faces&stage=Development HTTP/1.1" 200 146040
127.0.0.1 - - [20/Dec/2016:23:42:30 -0200] "GET /pedidoslanches/javax.faces.resource/images/ui-icons_38667f_256x240.png.xhtml?ln=primefaces-aristo HTTP/1.1" 200 4369
127.0.0.1 - - [20/Dec/2016:23:43:22 -0200] "POST /pedidoslanches/pedidos/pedidos.xhtml HTTP/1.1" 200 16222
127.0.0.1 - - [20/Dec/2016:23:43:23 -0200] "GET /pedidoslanches/javax.faces.resource/watermark/watermark.js.xhtml?ln=primefaces&v=5.1 HTTP/1.1" 200 5360
127.0.0.1 - - [20/Dec/2016:23:43:23 -0200] "GET /pedidoslanches/javax.faces.resource/primefaces.js.xhtml?ln=primefaces&v=5.1 HTTP/1.1" 200 313177
127.0.0.1 - - [20/Dec/2016:23:43:23 -0200] "GET /pedidoslanches/javax.faces.resource/watermark/watermark.css.xhtml?ln=primefaces&v=5.1 HTTP/1.1" 200 37
127.0.0.1 - - [20/Dec/2016:23:43:23 -0200] "GET /pedidoslanches/javax.faces.resource/jquery/jquery.js.xhtml?ln=primefaces&v=5.1 HTTP/1.1" 200 108195
127.0.0.1 - - [20/Dec/2016:23:43:23 -0200] "GET /pedidoslanches/javax.faces.resource/jquery/jquery-plugins.js.xhtml?ln=primefaces&v=5.1 HTTP/1.1" 200 236815
127.0.0.1 - - [20/Dec/2016:23:43:23 -0200] "GET /pedidoslanches/javax.faces.resource/theme.css.xhtml?ln=primefaces-aristo HTTP/1.1" 200 29266
127.0.0.1 - - [20/Dec/2016:23:43:23 -0200] "GET /pedidoslanches/javax.faces.resource/primefaces.css.xhtml?ln=primefaces&v=5.1 HTTP/1.1" 200 58821
127.0.0.1 - - [20/Dec/2016:23:43:23 -0200] "GET /pedidoslanches/javax.faces.resource/jsf.js.xhtml?ln=javax.faces&stage=Development HTTP/1.1" 200 146040
127.0.0.1 - - [20/Dec/2016:23:43:23 -0200] "GET /pedidoslanches/javax.faces.resource/images/ui-icons_38667f_256x240.png.xhtml?ln=primefaces-aristo HTTP/1.1" 200 4369
127.0.0.1 - - [20/Dec/2016:23:43:51 -0200] "POST /pedidoslanches/pedidos/pedidos.xhtml HTTP/1.1" 200 16222
127.0.0.1 - - [20/Dec/2016:23:43:51 -0200] "GET /pedidoslanches/javax.faces.resource/watermark/watermark.css.xhtml?ln=primefaces&v=5.1 HTTP/1.1" 200 37
127.0.0.1 - - [20/Dec/2016:23:43:51 -0200] "GET /pedidoslanches/javax.faces.resource/primefaces.js.xhtml?ln=primefaces&v=5.1 HTTP/1.1" 200 313177
127.0.0.1 - - [20/Dec/2016:23:43:51 -0200] "GET /pedidoslanches/javax.faces.resource/jquery/jquery.js.xhtml?ln=primefaces&v=5.1 HTTP/1.1" 200 108195
127.0.0.1 - - [20/Dec/2016:23:43:51 -0200] "GET /pedidoslanches/javax.faces.resource/watermark/watermark.js.xhtml?ln=primefaces&v=5.1 HTTP/1.1" 200 5360
127.0.0.1 - - [20/Dec/2016:23:43:51 -0200] "GET /pedidoslanches/javax.faces.resource/jquery/jquery-plugins.js.xhtml?ln=primefaces&v=5.1 HTTP/1.1" 200 236815
127.0.0.1 - - [20/Dec/2016:23:43:51 -0200] "GET /pedidoslanches/javax.faces.resource/theme.css.xhtml?ln=primefaces-aristo HTTP/1.1" 200 29266
127.0.0.1 - - [20/Dec/2016:23:43:51 -0200] "GET /pedidoslanches/javax.faces.resource/primefaces.css.xhtml?ln=primefaces&v=5.1 HTTP/1.1" 200 58821
127.0.0.1 - - [20/Dec/2016:23:43:51 -0200] "GET /pedidoslanches/javax.faces.resource/jsf.js.xhtml?ln=javax.faces&stage=Development HTTP/1.1" 200 146040
127.0.0.1 - - [20/Dec/2016:23:43:52 -0200] "GET /pedidoslanches/javax.faces.resource/images/ui-icons_38667f_256x240.png.xhtml?ln=primefaces-aristo HTTP/1.1" 200 4369
127.0.0.1 - - [20/Dec/2016:23:43:58 -0200] "POST /pedidoslanches/pedidos/pedidos.xhtml HTTP/1.1" 200 16263
127.0.0.1 - - [20/Dec/2016:23:43:58 -0200] "GET /pedidoslanches/javax.faces.resource/watermark/watermark.js.xhtml?ln=primefaces&v=5.1 HTTP/1.1" 200 5360
127.0.0.1 - - [20/Dec/2016:23:43:58 -0200] "GET /pedidoslanches/javax.faces.resource/jquery/jquery.js.xhtml?ln=primefaces&v=5.1 HTTP/1.1" 200 108195
127.0.0.1 - - [20/Dec/2016:23:43:58 -0200] "GET /pedidoslanches/javax.faces.resource/watermark/watermark.css.xhtml?ln=primefaces&v=5.1 HTTP/1.1" 200 37
127.0.0.1 - - [20/Dec/2016:23:43:58 -0200] "GET /pedidoslanches/javax.faces.resource/theme.css.xhtml?ln=primefaces-aristo HTTP/1.1" 200 29266
127.0.0.1 - - [20/Dec/2016:23:43:58 -0200] "GET /pedidoslanches/javax.faces.resource/primefaces.js.xhtml?ln=primefaces&v=5.1 HTTP/1.1" 200 313177
127.0.0.1 - - [20/Dec/2016:23:43:58 -0200] "GET /pedidoslanches/javax.faces.resource/jquery/jquery-plugins.js.xhtml?ln=primefaces&v=5.1 HTTP/1.1" 200 236815
127.0.0.1 - - [20/Dec/2016:23:43:58 -0200] "GET /pedidoslanches/javax.faces.resource/primefaces.css.xhtml?ln=primefaces&v=5.1 HTTP/1.1" 200 58821
127.0.0.1 - - [20/Dec/2016:23:43:58 -0200] "GET /pedidoslanches/javax.faces.resource/jsf.js.xhtml?ln=javax.faces&stage=Development HTTP/1.1" 200 146040
127.0.0.1 - - [20/Dec/2016:23:43:59 -0200] "GET /pedidoslanches/javax.faces.resource/images/ui-icons_38667f_256x240.png.xhtml?ln=primefaces-aristo HTTP/1.1" 200 4369
127.0.0.1 - - [20/Dec/2016:23:44:03 -0200] "POST /pedidoslanches/pedidos/pedidos.xhtml HTTP/1.1" 200 16222
127.0.0.1 - - [20/Dec/2016:23:44:03 -0200] "GET /pedidoslanches/javax.faces.resource/jquery/jquery.js.xhtml?ln=primefaces&v=5.1 HTTP/1.1" 200 108195
127.0.0.1 - - [20/Dec/2016:23:44:03 -0200] "GET /pedidoslanches/javax.faces.resource/watermark/watermark.js.xhtml?ln=primefaces&v=5.1 HTTP/1.1" 200 5360
127.0.0.1 - - [20/Dec/2016:23:44:03 -0200] "GET /pedidoslanches/javax.faces.resource/watermark/watermark.css.xhtml?ln=primefaces&v=5.1 HTTP/1.1" 200 37
127.0.0.1 - - [20/Dec/2016:23:44:03 -0200] "GET /pedidoslanches/javax.faces.resource/jquery/jquery-plugins.js.xhtml?ln=primefaces&v=5.1 HTTP/1.1" 200 236815
127.0.0.1 - - [20/Dec/2016:23:44:03 -0200] "GET /pedidoslanches/javax.faces.resource/primefaces.js.xhtml?ln=primefaces&v=5.1 HTTP/1.1" 200 313177
127.0.0.1 - - [20/Dec/2016:23:44:03 -0200] "GET /pedidoslanches/javax.faces.resource/theme.css.xhtml?ln=primefaces-aristo HTTP/1.1" 200 29266
127.0.0.1 - - [20/Dec/2016:23:44:03 -0200] "GET /pedidoslanches/javax.faces.resource/primefaces.css.xhtml?ln=primefaces&v=5.1 HTTP/1.1" 200 58821
127.0.0.1 - - [20/Dec/2016:23:44:03 -0200] "GET /pedidoslanches/javax.faces.resource/jsf.js.xhtml?ln=javax.faces&stage=Development HTTP/1.1" 200 146040
127.0.0.1 - - [20/Dec/2016:23:44:04 -0200] "GET /pedidoslanches/javax.faces.resource/images/ui-icons_38667f_256x240.png.xhtml?ln=primefaces-aristo HTTP/1.1" 200 4369
127.0.0.1 - - [20/Dec/2016:23:51:21 -0200] "GET /pedidoslanches/pedidos/pedidos.xhtml HTTP/1.1" 200 16192
127.0.0.1 - - [20/Dec/2016:23:51:21 -0200] "GET /pedidoslanches/javax.faces.resource/watermark/watermark.js.xhtml?ln=primefaces&v=5.1 HTTP/1.1" 200 5360
127.0.0.1 - - [20/Dec/2016:23:51:21 -0200] "GET /pedidoslanches/javax.faces.resource/watermark/watermark.css.xhtml?ln=primefaces&v=5.1 HTTP/1.1" 200 37
127.0.0.1 - - [20/Dec/2016:23:51:21 -0200] "GET /pedidoslanches/javax.faces.resource/primefaces.js.xhtml?ln=primefaces&v=5.1 HTTP/1.1" 200 313177
127.0.0.1 - - [20/Dec/2016:23:51:21 -0200] "GET /pedidoslanches/javax.faces.resource/jquery/jquery.js.xhtml?ln=primefaces&v=5.1 HTTP/1.1" 200 108195
127.0.0.1 - - [20/Dec/2016:23:51:21 -0200] "GET /pedidoslanches/javax.faces.resource/theme.css.xhtml?ln=primefaces-aristo HTTP/1.1" 200 29266
127.0.0.1 - - [20/Dec/2016:23:51:21 -0200] "GET /pedidoslanches/javax.faces.resource/jquery/jquery-plugins.js.xhtml?ln=primefaces&v=5.1 HTTP/1.1" 200 236815
127.0.0.1 - - [20/Dec/2016:23:51:21 -0200] "GET /pedidoslanches/javax.faces.resource/primefaces.css.xhtml?ln=primefaces&v=5.1 HTTP/1.1" 200 58821
127.0.0.1 - - [20/Dec/2016:23:51:21 -0200] "GET /pedidoslanches/javax.faces.resource/jsf.js.xhtml?ln=javax.faces&stage=Development HTTP/1.1" 200 146040
127.0.0.1 - - [20/Dec/2016:23:51:21 -0200] "GET /pedidoslanches/javax.faces.resource/images/ui-icons_38667f_256x240.png.xhtml?ln=primefaces-aristo HTTP/1.1" 200 4369
